A0004CH1.CSV

Memory Length,4000,
Trigger Level,4.600E-01,
Source,CH1,
Vertical Units,V,
Vertical Scale,2.000E-01,
Vertical Position,9.600E-02,
Horizontal Units,s,
Horizontal Scale,1.000E-03,
Horizontal Position,-1.320E-03,
Horizontal Mode,Main,
Sampling Period,4.000E-06,
Firmware, V1.12,
Waveform Data,
64,
64,
64,
65,
64,
64,
65,
64,
64,
64,
64,
64,
64,
65,
65,
64,
64,
64,
65,
64,
64,
64,
65,
64,
64,
64,
64,
64,
64,
65,
64,
64,
64,
65,
65,
64,
65,
64,
64,
64,
64,
64,
64,
64,
64,
64,
64,
64,
64,
64,
64,
64,
64,
64,
64,
64,
64,
64,
64,
64,
64,
65,
64,
65,
65,
65,
64,
64,
64,
64,
64,
64,
64,
64,
64,
64,
64,
64,
64,
64,
64,
64,
64,
64,
64,
64,
64,
64,
64,
64,
64,
65,
64,
64,
64,
64,
65,
64,
64,
64,
64,
64,
64,
64,
64,
64,
64,
64,
64,
64,
64,
64,
64,
64,
64,
64,
64,
64,
64,
64,
64,
64,
64,
64,
64,
64,
65,
64,
64,
64,
64,
64,
65,
64,
64,
64,
65,
64,
64,
64,
64,
65,
64,
64,
64,
64,
64,
64,
65,
64,
64,
64,
65,
64,
65,
65,
64,
64,
64,
64,
64,
64,
64,
64,
64,
64,
64,
65,
64,
64,
64,
64,
64,
64,
64,
64,
64,
64,
64,
65,
64,
64,
64,
64,
64,
64,
64,
64,
64,
64,
64,
64,
64,
64,
64,
64,
64,
64,
64,
64,
65,
64,
64,
64,
64,
64,
64,
64,
64,
65,
64,
64,
64,
65,
64,
64,
64,
64,
64,
64,
64,
64,
64,
64,
64,
65,
64,
64,
64,
64,
65,
63,
65,
64,
64,
64,
64,
65,
65,
64,
64,
64,
65,
64,
64,
65,
64,
65,
65,
64,
64,
65,
64,
64,
64,
64,
64,
64,
64,
64,
64,
65,
64,
64,
64,
64,
65,
64,
64,
64,
65,
64,
64,
64,
65,
64,
64,
64,
64,
64,
64,
64,
64,
64,
64,
64,
64,
64,
64,
65,
64,
64,
64,
64,
64,
64,
64,
65,
65,
64,
65,
64,
64,
64,
64,
64,
64,
64,
66,
64,
64,
65,
65,
64,
64,
64,
64,
64,
64,
64,
64,
65,
64,
65,
64,
65,
64,
65,
65,
64,
64,
64,
64,
64,
64,
64,
64,
64,
64,
65,
64,
64,
64,
65,
64,
64,
65,
65,
65,
64,
64,
64,
64,
64,
64,
64,
64,
64,
65,
64,
64,
65,
64,
64,
64,
65,
64,
65,
64,
64,
64,
64,
64,
65,
64,
64,
64,
64,
65,
65,
64,
64,
65,
64,
65,
64,
64,
64,
64,
65,
64,
65,
64,
64,
64,
65,
64,
64,
64,
65,
65,
64,
65,
64,
65,
65,
64,
64,
64,
64,
65,
64,
64,
65,
64,
63,
64,
61,
58,
54,
49,
46,
42,
39,
35,
31,
27,
24,
20,
18,
15,
11,
8,
5,
3,
0,
-2,
-4,
-7,
-10,
-12,
-14,
-16,
-18,
-20,
-23,
-25,
-27,
-29,
-30,
-32,
-34,
-35,
-37,
-40,
-41,
-43,
-44,
-45,
-46,
-48,
-49,
-51,
-52,
-53,
-54,
-56,
-56,
-57,
-59,
-60,
-61,
-61,
-63,
-64,
-65,
-66,
-66,
-67,
-68,
-69,
-70,
-70,
-72,
-72,
-73,
-74,
-75,
-75,
-76,
-77,
-76,
-77,
-78,
-78,
-79,
-80,
-80,
-80,
-81,
-81,
-82,
-82,
-83,
-84,
-84,
-84,
-85,
-85,
-86,
-86,
-86,
-86,
-87,
-88,
-88,
-88,
-88,
-89,
-89,
-89,
-89,
-90,
-90,
-90,
-90,
-90,
-92,
-91,
-91,
-92,
-92,
-93,
-92,
-92,
-93,
-93,
-94,
-93,
-93,
-93,
-94,
-94,
-94,
-94,
-94,
-95,
-95,
-95,
-95,
-95,
-96,
-95,
-96,
-96,
-96,
-96,
-96,
-96,
-96,
-96,
-96,
-96,
-97,
-97,
-97,
-97,
-97,
-97,
-96,
-96,
-97,
-97,
-96,
-97,
-97,
-98,
-97,
-97,
-97,
-98,
-98,
-98,
-98,
-98,
-99,
-98,
-98,
-97,
-98,
-99,
-98,
-98,
-99,
-98,
-98,
-98,
-99,
-98,
-98,
-99,
-99,
-99,
-98,
-98,
-99,
-99,
-99,
-99,
-98,
-99,
-100,
-99,
-99,
-99,
-99,
-99,
-99,
-98,
-99,
-99,
-99,
-99,
-100,
-99,
-99,
-99,
-100,
-100,
-99,
-100,
-100,
-99,
-100,
-99,
-99,
-99,
-99,
-100,
-99,
-100,
-99,
-100,
-100,
-100,
-100,
-100,
-100,
-100,
-100,
-100,
-100,
-100,
-100,
-100,
-99,
-99,
-100,
-100,
-100,
-100,
-99,
-100,
-100,
-100,
-99,
-100,
-99,
-100,
-99,
-100,
-100,
-99,
-100,
-100,
-100,
-99,
-100,
-99,
-100,
-100,
-100,
-100,
-100,
-100,
-100,
-100,
-100,
-99,
-99,
-100,
-99,
-100,
-100,
-100,
-99,
-100,
-100,
-100,
-100,
-100,
-100,
-100,
-100,
-100,
-100,
-100,
-100,
-100,
-99,
-100,
-100,
-100,
-100,
-100,
-100,
-100,
-100,
-100,
-100,
-100,
-100,
-100,
-100,
-100,
-100,
-100,
-100,
-100,
-100,
-100,
-100,
-100,
-100,
-100,
-100,
-100,
-99,
-100,
-99,
-100,
-100,
-100,
-100,
-100,
-100,
-100,
-100,
-101,
-99,
-100,
-100,
-100,
-100,
-100,
-100,
-99,
-100,
-100,
-100,
-100,
-100,
-100,
-100,
-100,
-100,
-100,
-100,
-100,
-100,
-100,
-100,
-99,
-100,
-100,
-100,
-100,
-100,
-100,
-100,
-100,
-100,
-100,
-100,
-100,
-99,
-99,
-100,
-99,
-100,
-99,
-100,
-100,
-99,
-100,
-100,
-100,
-100,
-100,
-100,
-100,
-100,
-100,
-100,
-100,
-100,
-100,
-100,
-99,
-100,
-99,
-100,
-100,
-99,
-101,
-100,
-99,
-100,
-100,
-100,
-100,
-99,
-100,
-100,
-100,
-100,
-100,
-100,
-99,
-99,
-99,
-99,
-100,
-100,
-100,
-100,
-99,
-99,
-100,
-100,
-100,
-100,
-100,
-99,
-100,
-100,
-101,
-100,
-99,
-100,
-100,
-100,
-100,
-100,
-100,
-100,
-100,
-100,
-100,
-99,
-99,
-100,
-100,
-99,
-100,
-100,
-99,
-100,
-100,
-100,
-100,
-100,
-99,
-100,
-100,
-100,
-99,
-100,
-100,
-100,
-100,
-100,
-100,
-100,
-100,
-100,
-100,
-99,
-100,
-100,
-100,
-100,
-99,
-99,
-100,
-100,
-99,
-100,
-99,
-100,
-100,
-100,
-99,
-100,
-100,
-100,
-100,
-100,
-100,
-99,
-100,
-100,
-99,
-100,
-100,
-99,
-99,
-100,
-100,
-99,
-100,
-100,
-100,
-99,
-100,
-100,
-100,
-100,
-100,
-100,
-99,
-99,
-100,
-100,
-100,
-100,
-100,
-100,
-100,
-100,
-99,
-99,
-100,
-99,
-100,
-100,
-100,
-99,
-100,
-100,
-100,
-99,
-100,
-99,
-100,
-99,
-100,
-99,
-99,
-100,
-99,
-100,
-100,
-100,
-99,
-100,
-99,
-100,
-99,
-99,
-100,
-99,
-99,
-100,
-99,
-100,
-100,
-99,
-99,
-100,
-100,
-99,
-100,
-100,
-99,
-99,
-100,
-100,
-100,
-100,
-99,
-100,
-99,
-99,
-99,
-100,
-100,
-100,
-100,
-100,
-100,
-100,
-99,
-100,
-100,
-100,
-100,
-100,
-100,
-100,
-100,
-100,
-99,
-100,
-99,
-100,
-100,
-99,
-100,
-100,
-99,
-100,
-100,
-100,
-99,
-100,
-100,
-100,
-99,
-100,
-100,
-100,
-100,
-99,
-99,
-100,
-99,
-100,
-99,
-99,
-99,
-99,
-99,
-100,
-100,
-100,
-99,
-99,
-100,
-99,
-100,
-100,
-99,
-99,
-100,
-100,
-100,
-100,
-100,
-99,
-100,
-100,
-99,
-100,
-99,
-99,
-99,
-100,
-100,
-100,
-99,
-100,
-100,
-100,
-99,
-99,
-100,
-100,
-99,
-100,
-100,
-100,
-99,
-99,
-99,
-99,
-98,
-100,
-100,
-100,
-100,
-100,
-99,
-100,
-100,
-99,
-100,
-99,
-100,
-100,
-99,
-100,
-100,
-100,
-99,
-100,
-100,
-100,
-99,
-100,
-100,
-100,
-100,
-100,
-100,
-99,
-100,
-100,
-100,
-99,
-100,
-100,
-100,
-100,
-100,
-99,
-100,
-100,
-100,
-99,
-99,
-99,
-100,
-100,
-99,
-100,
-100,
-99,
-100,
-100,
-100,
-100,
-99,
-100,
-99,
-99,
-99,
-100,
-99,
-100,
-99,
-99,
-100,
-99,
-100,
-100,
-100,
-100,
-100,
-99,
-100,
-100,
-100,
-100,
-100,
-99,
-99,
-100,
-100,
-100,
-100,
-99,
-100,
-100,
-100,
-99,
-99,
-100,
-100,
-100,
-100,
-100,
-100,
-100,
-99,
-99,
-99,
-100,
-99,
-99,
-99,
-99,
-100,
-100,
-100,
-100,
-99,
-100,
-100,
-99,
-99,
-100,
-99,
-99,
-99,
-99,
-100,
-99,
-100,
-100,
-99,
-100,
-99,
-100,
-99,
-99,
-100,
-100,
-100,
-100,
-99,
-99,
-100,
-100,
-99,
-100,
-100,
-99,
-99,
-100,
-100,
-99,
-100,
-100,
-99,
-100,
-100,
-100,
-100,
-99,
-99,
-100,
-100,
-99,
-99,
-100,
-100,
-100,
-100,
-100,
-100,
-99,
-99,
-100,
-100,
-100,
-100,
-99,
-100,
-100,
-100,
-100,
-100,
-99,
-100,
-100,
-100,
-100,
-99,
-99,
-99,
-99,
-100,
-99,
-100,
-99,
-99,
-100,
-100,
-100,
-100,
-99,
-100,
-99,
-100,
-99,
-100,
-100,
-99,
-100,
-100,
-100,
-99,
-100,
-100,
-99,
-99,
-99,
-100,
-99,
-99,
-99,
-100,
-100,
-100,
-99,
-100,
-99,
-100,
-99,
-100,
-100,
-100,
-100,
-100,
-100,
-99,
-100,
-100,
-100,
-99,
-100,
-100,
-100,
-99,
-99,
-99,
-99,
-100,
-100,
-100,
-99,
-100,
-100,
-99,
-99,
-100,
-100,
-100,
-100,
-100,
-100,
-99,
-100,
-99,
-100,
-100,
-100,
-100,
-100,
-100,
-100,
-100,
-100,
-99,
-99,
-100,
-99,
-100,
-100,
-100,
-100,
-99,
-99,
-99,
-99,
-100,
-100,
-99,
-100,
-99,
-100,
-99,
-99,
-100,
-99,
-100,
-100,
-99,
-100,
-100,
-99,
-100,
-99,
-100,
-100,
-99,
-100,
-99,
-99,
-99,
-100,
-99,
-99,
-99,
-99,
-99,
-100,
-99,
-97,
-94,
-90,
-86,
-82,
-78,
-74,
-71,
-68,
-64,
-60,
-57,
-54,
-52,
-48,
-44,
-41,
-39,
-36,
-34,
-32,
-29,
-26,
-24,
-21,
-20,
-17,
-15,
-13,
-12,
-8,
-7,
-5,
-3,
-2,
0,
2,
3,
4,
7,
8,
10,
11,
12,
14,
16,
17,
18,
19,
20,
21,
23,
24,
24,
25,
27,
28,
29,
30,
31,
32,
32,
33,
34,
35,
36,
36,
37,
37,
39,
39,
40,
40,
41,
41,
42,
43,
43,
44,
44,
45,
47,
46,
46,
47,
48,
48,
48,
50,
49,
50,
50,
50,
51,
52,
52,
51,
52,
52,
52,
53,
54,
54,
55,
55,
54,
55,
55,
55,
56,
56,
56,
56,
56,
56,
56,
57,
57,
57,
58,
57,
58,
58,
59,
59,
59,
59,
59,
59,
59,
59,
60,
60,
61,
60,
60,
60,
60,
60,
60,
61,
61,
61,
60,
60,
61,
62,
62,
61,
62,
62,
62,
63,
62,
62,
62,
62,
62,
63,
63,
63,
63,
63,
63,
63,
63,
63,
63,
64,
63,
64,
63,
63,
64,
64,
63,
64,
64,
64,
64,
64,
64,
63,
63,
64,
64,
64,
64,
65,
64,
64,
64,
64,
64,
64,
64,
64,
64,
64,
64,
64,
64,
64,
64,
64,
64,
64,
65,
65,
64,
64,
64,
63,
64,
64,
64,
64,
64,
64,
64,
64,
64,
64,
64,
64,
65,
64,
64,
65,
65,
65,
64,
64,
64,
65,
64,
65,
65,
65,
65,
65,
64,
65,
65,
65,
64,
64,
65,
64,
65,
65,
65,
64,
64,
65,
65,
65,
64,
64,
65,
65,
65,
64,
64,
64,
65,
64,
65,
64,
65,
65,
65,
65,
65,
65,
65,
64,
64,
65,
65,
65,
65,
64,
64,
64,
65,
65,
65,
65,
64,
65,
65,
64,
65,
64,
66,
65,
65,
64,
65,
64,
65,
65,
65,
64,
65,
65,
64,
65,
65,
65,
64,
65,
64,
64,
65,
66,
65,
65,
65,
65,
64,
65,
65,
64,
65,
66,
65,
65,
65,
65,
65,
65,
65,
65,
65,
65,
65,
64,
65,
65,
65,
65,
64,
64,
64,
65,
64,
64,
65,
65,
65,
65,
65,
64,
64,
64,
65,
65,
65,
65,
64,
65,
64,
65,
65,
64,
65,
64,
64,
64,
64,
65,
65,
64,
65,
64,
64,
65,
65,
64,
64,
64,
64,
64,
64,
64,
64,
65,
64,
66,
64,
64,
65,
65,
64,
64,
64,
64,
65,
65,
65,
65,
65,
64,
65,
64,
65,
65,
64,
64,
65,
65,
64,
64,
64,
65,
64,
65,
64,
65,
64,
64,
65,
64,
64,
64,
65,
65,
65,
64,
65,
64,
64,
64,
64,
65,
64,
66,
65,
64,
64,
64,
64,
65,
65,
64,
64,
64,
64,
65,
64,
64,
64,
64,
64,
65,
64,
65,
64,
64,
64,
64,
65,
64,
64,
64,
65,
65,
64,
64,
64,
64,
65,
64,
63,
65,
64,
64,
64,
64,
64,
65,
65,
64,
65,
64,
64,
65,
65,
64,
64,
64,
66,
65,
65,
65,
64,
65,
64,
64,
64,
64,
64,
65,
65,
64,
64,
64,
64,
65,
64,
64,
64,
65,
64,
64,
64,
64,
64,
64,
65,
65,
64,
64,
64,
65,
64,
65,
64,
64,
64,
64,
64,
64,
64,
64,
64,
64,
64,
64,
64,
64,
64,
64,
64,
64,
65,
64,
64,
64,
64,
64,
64,
64,
64,
64,
64,
64,
64,
64,
65,
65,
64,
64,
64,
64,
64,
64,
64,
64,
64,
64,
64,
64,
65,
65,
64,
64,
64,
64,
65,
64,
64,
65,
64,
65,
64,
64,
64,
65,
65,
64,
64,
65,
65,
64,
64,
64,
65,
64,
64,
64,
64,
64,
64,
64,
64,
64,
64,
64,
65,
65,
64,
64,
64,
65,
64,
64,
64,
64,
64,
64,
64,
65,
64,
64,
64,
64,
64,
64,
64,
64,
64,
64,
65,
64,
64,
64,
64,
64,
64,
64,
64,
64,
64,
64,
64,
64,
65,
65,
64,
64,
64,
64,
64,
64,
65,
64,
64,
64,
64,
64,
64,
64,
64,
64,
65,
64,
64,
64,
64,
64,
64,
64,
64,
64,
64,
64,
65,
64,
64,
64,
65,
64,
64,
64,
64,
65,
64,
64,
64,
64,
64,
65,
64,
64,
64,
64,
64,
64,
65,
64,
64,
64,
65,
64,
65,
64,
65,
64,
64,
64,
64,
64,
64,
65,
64,
64,
65,
64,
64,
64,
65,
64,
64,
64,
64,
64,
64,
65,
65,
64,
64,
65,
64,
64,
64,
64,
64,
64,
65,
65,
64,
64,
64,
64,
64,
64,
64,
64,
64,
64,
64,
64,
65,
64,
64,
64,
64,
64,
64,
65,
64,
64,
64,
64,
64,
64,
64,
65,
64,
64,
64,
64,
64,
64,
64,
65,
64,
64,
64,
65,
64,
64,
64,
65,
64,
64,
64,
64,
64,
65,
64,
64,
64,
64,
64,
64,
64,
64,
64,
64,
64,
64,
64,
64,
63,
65,
64,
64,
65,
65,
65,
63,
64,
65,
64,
64,
64,
65,
64,
65,
64,
64,
64,
64,
64,
64,
65,
64,
65,
64,
64,
64,
64,
65,
64,
64,
64,
65,
64,
64,
64,
64,
64,
64,
64,
64,
64,
64,
64,
64,
64,
64,
65,
64,
64,
64,
65,
64,
65,
64,
64,
64,
64,
64,
64,
64,
64,
64,
64,
64,
64,
64,
64,
65,
64,
64,
64,
64,
65,
65,
65,
64,
64,
64,
64,
65,
64,
64,
65,
64,
65,
64,
64,
65,
64,
64,
64,
64,
64,
65,
64,
65,
64,
65,
64,
64,
64,
64,
64,
65,
64,
64,
64,
64,
64,
65,
64,
64,
64,
65,
64,
64,
64,
64,
64,
64,
64,
61,
56,
52,
49,
44,
41,
37,
34,
30,
26,
24,
20,
16,
14,
11,
8,
5,
3,
0,
-3,
-5,
-8,
-10,
-12,
-14,
-17,
-19,
-21,
-23,
-25,
-27,
-29,
-31,
-33,
-34,
-36,
-38,
-39,
-41,
-42,
-44,
-46,
-47,
-48,
-49,
-51,
-52,
-53,
-55,
-56,
-57,
-58,
-59,
-60,
-61,
-62,
-63,
-64,
-65,
-66,
-67,
-67,
-68,
-69,
-70,
-70,
-72,
-72,
-73,
-73,
-75,
-76,
-76,
-76,
-77,
-77,
-78,
-78,
-79,
-80,
-80,
-80,
-81,
-82,
-82,
-82,
-84,
-84,
-84,
-85,
-85,
-85,
-85,
-86,
-86,
-87,
-86,
-88,
-87,
-88,
-88,
-89,
-89,
-89,
-90,
-90,
-89,
-90,
-90,
-90,
-92,
-91,
-92,
-92,
-92,
-92,
-92,
-93,
-92,
-93,
-93,
-93,
-93,
-93,
-94,
-94,
-94,
-93,
-94,
-95,
-95,
-94,
-95,
-96,
-95,
-95,
-96,
-96,
-95,
-96,
-96,
-96,
-96,
-96,
-96,
-96,
-96,
-97,
-96,
-97,
-97,
-96,
-97,
-97,
-97,
-97,
-97,
-97,
-98,
-97,
-98,
-98,
-97,
-97,
-98,
-98,
-98,
-98,
-97,
-97,
-98,
-99,
-99,
-98,
-98,
-98,
-99,
-98,
-99,
-98,
-99,
-98,
-98,
-98,
-98,
-99,
-99,
-99,
-98,
-99,
-98,
-99,
-99,
-99,
-99,
-99,
-99,
-99,
-99,
-99,
-100,
-98,
-99,
-100,
-99,
-99,
-100,
-98,
-99,
-99,
-99,
-99,
-99,
-99,
-99,
-99,
-99,
-99,
-100,
-100,
-99,
-100,
-99,
-100,
-99,
-100,
-100,
-100,
-99,
-100,
-99,
-100,
-100,
-99,
-100,
-100,
-99,
-100,
-99,
-100,
-100,
-100,
-100,
-100,
-99,
-100,
-100,
-100,
-100,
-100,
-100,
-100,
-100,
-100,
-100,
-100,
-100,
-100,
-100,
-100,
-100,
-99,
-100,
-100,
-100,
-99,
-100,
-99,
-100,
-100,
-100,
-100,
-100,
-100,
-100,
-100,
-100,
-100,
-100,
-100,
-100,
-100,
-100,
-100,
-100,
-99,
-100,
-100,
-100,
-100,
-100,
-100,
-100,
-100,
-100,
-100,
-100,
-100,
-100,
-100,
-100,
-100,
-100,
-100,
-100,
-99,
-100,
-100,
-100,
-100,
-100,
-100,
-100,
-99,
-100,
-100,
-100,
-100,
-100,
-100,
-100,
-100,
-100,
-100,
-100,
-100,
-100,
-101,
-100,
-100,
-100,
-100,
-100,
-100,
-100,
-100,
-100,
-100,
-100,
-100,
-100,
-100,
-100,
-99,
-100,
-100,
-100,
-100,
-100,
-100,
-100,
-100,
-100,
-100,
-99,
-100,
-100,
-100,
-100,
-99,
-100,
-100,
-100,
-99,
-100,
-100,
-100,
-100,
-100,
-100,
-100,
-100,
-100,
-100,
-100,
-100,
-100,
-100,
-100,
-99,
-100,
-100,
-100,
-100,
-99,
-99,
-100,
-100,
-100,
-100,
-100,
-100,
-100,
-100,
-100,
-100,
-100,
-100,
-100,
-100,
-99,
-100,
-100,
-100,
-100,
-100,
-100,
-100,
-100,
-100,
-100,
-100,
-99,
-100,
-100,
-100,
-100,
-100,
-100,
-100,
-100,
-100,
-100,
-100,
-100,
-100,
-100,
-100,
-100,
-100,
-99,
-100,
-100,
-100,
-100,
-100,
-100,
-99,
-100,
-100,
-100,
-100,
-100,
-100,
-100,
-100,
-100,
-100,
-99,
-100,
-100,
-100,
-100,
-99,
-100,
-100,
-100,
-100,
-100,
-99,
-100,
-100,
-100,
-100,
-100,
-99,
-100,
-99,
-100,
-99,
-99,
-100,
-100,
-99,
-100,
-100,
-100,
-100,
-99,
-100,
-100,
-100,
-100,
-100,
-100,
-100,
-100,
-100,
-100,
-100,
-100,
-100,
-100,
-99,
-100,
-101,
-99,
-100,
-99,
-100,
-100,
-100,
-100,
-99,
-99,
-99,
-100,
-99,
-100,
-100,
-100,
-99,
-99,
-100,
-100,
-100,
-100,
-100,
-100,
-100,
-100,
-100,
-100,
-100,
-99,
-99,
-99,
-100,
-100,
-100,
-100,
-100,
-100,
-100,
-100,
-100,
-99,
-99,
-100,
-100,
-99,
-100,
-100,
-100,
-100,
-100,
-100,
-100,
-99,
-100,
-100,
-100,
-100,
-100,
-100,
-100,
-100,
-100,
-99,
-99,
-99,
-100,
-100,
-99,
-100,
-100,
-100,
-100,
-100,
-100,
-100,
-100,
-100,
-100,
-100,
-100,
-100,
-100,
-100,
-100,
-100,
-100,
-99,
-100,
-99,
-99,
-100,
-100,
-99,
-100,
-100,
-100,
-100,
-100,
-100,
-100,
-99,
-100,
-100,
-99,
-100,
-100,
-100,
-100,
-99,
-100,
-99,
-100,
-100,
-100,
-100,
-100,
-99,
-100,
-100,
-99,
-100,
-100,
-100,
-99,
-99,
-99,
-99,
-99,
-100,
-100,
-100,
-100,
-99,
-100,
-100,
-100,
-100,
-100,
-100,
-100,
-100,
-99,
-99,
-100,
-99,
-100,
-100,
-99,
-100,
-100,
-100,
-100,
-99,
-100,
-100,
-99,
-99,
-100,
-100,
-100,
-100,
-99,
-100,
-100,
-99,
-100,
-100,
-99,
-100,
-99,
-100,
-100,
-100,
-100,
-99,
-99,
-100,
-99,
-100,
-100,
-99,
-100,
-99,
-99,
-99,
-100,
-99,
-99,
-100,
-100,
-99,
-100,
-100,
-100,
-100,
-100,
-100,
-100,
-100,
-100,
-100,
-100,
-100,
-100,
-100,
-100,
-100,
-100,
-100,
-100,
-99,
-100,
-99,
-100,
-99,
-100,
-99,
-100,
-100,
-99,
-100,
-100,
-99,
-100,
-100,
-99,
-100,
-99,
-99,
-100,
-99,
-100,
-99,
-101,
-100,
-99,
-100,
-100,
-100,
-100,
-99,
-100,
-100,
-99,
-99,
-100,
-99,
-100,
-100,
-100,
-100,
-100,
-99,
-100,
-100,
-100,
-99,
-100,
-100,
-100,
-100,
-99,
-100,
-100,
-100,
-99,
-99,
-100,
-100,
-100,
-100,
-100,
-99,
-100,
-100,
-100,
-99,
-100,
-100,
-100,
-100,
-99,
-99,
-100,
-99,
-100,
-100,
-100,
-99,
-100,
-100,
-100,
-100,
-100,
-100,
-100,
-100,
-100,
-99,
-99,
-99,
-99,
-99,
-100,
-100,
-100,
-100,
-100,
-99,
-100,
-100,
-99,
-100,
-100,
-99,
-99,
-100,
-100,
-99,
-100,
-100,
-99,
-99,
-100,
-100,
-100,
-99,
-99,
-100,
-100,
-100,
-100,
-100,
-100,
-99,
-99,
-100,
-100,
-100,
-99,
-100,
-100,
-99,
-99,
-99,
-99,
-100,
-100,
-100,
-100,
-100,
-100,
-100,
-100,
-99,
-100,
-100,
-100,
-99,
-99,
-99,
-100,
-100,
-100,
-99,
-100,
-99,
-100,
-100,
-100,
-99,
-100,
-100,
-99,
-100,
-99,
-100,
-100,
-99,
-99,
-100,
-99,
-101,
-100,
-100,
-100,
-100,
-100,
-99,
-100,
-100,
-100,
-100,
-99,
-100,
-99,
-100,
-100,
-100,
-99,
-100,
-99,
-99,
-100,
-99,
-100,
-99,
-100,
-100,
-100,
-100,
-100,
-100,
-100,
-100,
-100,
-100,
-100,
-100,
-99,
-99,
-99,
-100,
-100,
-100,
-100,
-100,
-100,
-99,
-100,
-99,
-99,
-99,
-100,
-100,
-100,
-99,
-99,
-100,
-100,
-100,
-99,
-99,
-100,
-99,
-100,
-100,
-100,
-99,
-100,
-99,
-100,
-100,
-99,
-100,
-99,
-100,
-100,
-100,
-99,
-100,
-100,
-99,
-99,
-99,
-100,
-100,
-99,
-99,
-100,
-100,
-99,
-100,
-100,
-99,
-99,
-100,
-99,
-100,
-99,
-99,
-100,
-99,
-99,
-99,
-99,
-99,
-95,
-90,
-88,
-84,
-80,
-76,
-71,
-68,
-65,
-61,
-57,
-55,
-52,
-49,
-46,
-43,
-40,
-37,
-34,
-32,
-30,
-26,
-24,
-22,
-21,
-18,
-16,
-13,
-12,
-9,
-8,
-5,
-4,
-2,
-1,
1,
3,
4,
6,
7,
9,
10,
11,
13,
15,
16,
17,
19,
20,
21,
23,
23,
24,
25,
26,
27,
28,
29,
30,
31,
32,
32,
34,
34,
35,
36,
36,
37,
37,
39,
40,
40,
40,
42,
42,
43,
43,
44,
44,
44,
45,
46,
47,
47,
48,
47,
48,
49,
50,
50,
50,
51,
51,
51,
52,
52,
52,
52,
52,
53,
53,
54,
54,
54,
54,
54,
55,
55,
55,
56,
56,
56,
56,
57,
56,
57,
57,
58,
58,
58,
58,
58,
58,
58,
59,
59,
59,
59,
60,
59,
60,
60,
59,
60,
60,
60,
60,
61,
60,
61,
61,
61,
61,
61,
62,
61,
62,
61,
62,
62,
62,
62,
62,
62,
62,
62,
63,
63,
63,
63,
63,
63,
62,
63,
63,
63,
63,
63,
63,
63,
63,
63,
63,
63,
63,
64,
64,
63,
63,
64,
63,
63,
64,
64,
63,
64,
63,
64,
63,
64,
64,
64,
64,
64,
64,
64,
64,
64,
64,
65,
64,
64,
64,
64,
64,
64,
64,
64,
64,
64,
64,
64,
65,
65,
64,
65,
65,
64,
64,
65,
64,
64,
64,
64,
64,
64,
64,
65,
64,
65,
64,
65,
64,
64,
65,
64,
64,
64,
64,
64,
64,
64,
64,
64,
65,
64,
64,
64,
65,
64,
64,
64,
64,
65,
64,
65,
64,
65,
65,
65,
65,
64,
65,
65,
65,
65,
64,
65,
66,
65,
65,
64,
65,
65,
65,
65,
64,
65,
65,
65,
65,
65,
65,
64,
65,
64,
65,
65,
65,
64,
65,
64,
65,
65,
65,
64,
65,
64,
65,
65,
65,
65,
65,
64,
65,
64,
64,
65,
64,
64,
65,
66,
65,
64,
64,
65,
65,
65,
65,
65,
65,
65,
65,
64,
65,
65,
65,
64,
65,
65,
64,
65,
65,
65,
64,
65,
64,
64,
65,
64,
64,
65,
64,
65,
64,
65,
65,
64,
64,
64,
64,
64,
65,
65,
64,
65,
65,
64,
65,
65,
65,
65,
65,
65,
64,
64,
64,
65,
64,
64,
64,
65,
65,
65,
64,
65,
65,
65,
64,
65,
65,
65,
65,
64,
64,
64,
65,
65,
65,
65,
64,
65,
65,
64,
65,
64,
64,
65,
64,
64,
64,
65,
65,
64,
65,
64,
65,
64,
65,
64,
65,
64,
65,
64,
64,
64,
65,
65,
65,
65,
64,
64,
64,
65,
64,
65,
65,
64,
64,
64,
64,
64,
65,
65,
64,
64,
64,
64,
65,
64,
64,
64,
65,
65,
64,
64,
65,
64,
65,
64,
64,
64,
65,
64,
65,
64,
64,
64,
64,
64,
64,
64,
64,
65,
65,
65,
65,
64,
64,
64,
65,
64,
64,
64,
64,
64,
65,
64,
65,
64,
64,
64,
65,
64,
64,
64,
64,
65,
64,
64,
64,
64,
64,
65,
65,
64,
64,
66,
64,
65,
64,
64,
64,
64,
64,
64,
65,
64,
64,
64,
65,
64,
64,
64,
64,
64,
64,
65,
64,
65,
64,
65,
65,
64,
65,
64,
64,
65,
64,
64,
64,
65,
65,
64,
64,
64,
65,
64,
65,
64,
64,
66,
65,
64,
65,
64,
64,
64,
64,
64,
65,
64,
65,
64,
64,
64,
64,
64,
64,
65,
65,
65,
64,
65,
65,
64,
64,
64,
64,
66,
65,
64,
64,
64,
65,
64,
65,
64,
64,
64,
65,
64,
64,
65,
64,
64,
64,
64,
64,
64,
64,
65,
64,
64,
65,
65,
64,
64,
64,
64,
65,
65,
64,
64,
64,
65,
64,
64,
65,
64,
64,
65,
64,
64,
65,
64,
65,
64,
64,
64,
64,
64,
64,
64,
64,
65,
64,
64,
64,
64,
65,
64,
64,
64,
65,
64,
64,
64,
64,
64,
64,
64,
64,
64,
64,
64,
64,
64,
64,
64,
64,
64,
65,
65,
64,
64,
64,
65,
64,
64,
64,
64,
64,
64,
64,
66,
64,
64,
64,
64,
65,
64,
65,
64,
64,
64,
64,
64,
64,
64,
64,
64,
65,
65,
65,
64,
65,
64,
