A0005CH1.CSV

Memory Length,4000,
Trigger Level,4.600E-01,
Source,CH1,
Vertical Units,V,
Vertical Scale,2.000E-01,
Vertical Position,9.600E-02,
Horizontal Units,s,
Horizontal Scale,1.000E-03,
Horizontal Position,-1.320E-03,
Horizontal Mode,Main,
Sampling Period,4.000E-06,
Firmware, V1.12,
Waveform Data,
52,
52,
52,
52,
52,
52,
52,
52,
52,
52,
52,
52,
52,
52,
52,
52,
52,
52,
52,
52,
52,
52,
52,
52,
52,
52,
52,
51,
52,
52,
52,
52,
52,
52,
52,
53,
52,
52,
52,
52,
51,
52,
52,
52,
52,
52,
52,
52,
52,
52,
52,
52,
52,
51,
52,
52,
52,
51,
52,
52,
52,
52,
53,
52,
52,
52,
52,
52,
52,
52,
52,
52,
52,
52,
52,
52,
52,
52,
52,
52,
52,
52,
52,
52,
52,
52,
52,
52,
52,
52,
52,
52,
52,
52,
52,
52,
52,
52,
52,
52,
52,
52,
52,
51,
51,
52,
52,
52,
52,
52,
52,
51,
52,
52,
52,
52,
52,
52,
52,
52,
52,
52,
52,
52,
52,
52,
52,
52,
52,
52,
52,
52,
51,
52,
52,
52,
52,
51,
52,
52,
52,
52,
52,
52,
52,
52,
52,
52,
52,
53,
52,
52,
52,
52,
51,
52,
52,
52,
52,
52,
52,
52,
52,
52,
52,
52,
52,
52,
52,
52,
52,
52,
52,
52,
52,
52,
52,
52,
52,
52,
52,
52,
52,
52,
52,
52,
52,
52,
52,
52,
52,
52,
52,
52,
52,
52,
52,
52,
52,
52,
53,
52,
52,
52,
52,
52,
52,
52,
52,
52,
52,
52,
52,
52,
52,
52,
51,
52,
52,
52,
52,
52,
52,
52,
52,
52,
52,
52,
51,
52,
52,
52,
52,
52,
52,
52,
52,
52,
52,
52,
52,
52,
52,
52,
52,
52,
52,
52,
52,
52,
52,
52,
52,
52,
52,
53,
52,
52,
52,
52,
53,
52,
52,
52,
52,
52,
52,
52,
52,
52,
52,
52,
52,
52,
52,
52,
52,
52,
52,
52,
52,
52,
52,
52,
52,
52,
52,
52,
52,
52,
52,
52,
52,
52,
52,
52,
52,
52,
52,
52,
52,
52,
52,
52,
52,
52,
52,
52,
52,
52,
52,
52,
52,
52,
52,
52,
52,
52,
52,
52,
52,
52,
52,
51,
52,
52,
52,
52,
52,
52,
52,
52,
52,
52,
52,
51,
52,
52,
52,
52,
52,
52,
52,
52,
52,
52,
52,
52,
52,
52,
52,
52,
52,
52,
52,
52,
52,
52,
52,
52,
52,
52,
52,
52,
51,
52,
52,
52,
52,
52,
52,
52,
52,
52,
52,
52,
52,
52,
52,
52,
52,
52,
52,
52,
52,
52,
52,
52,
52,
52,
52,
52,
52,
52,
52,
52,
52,
52,
52,
52,
52,
52,
52,
52,
52,
52,
52,
52,
52,
53,
52,
51,
52,
52,
52,
52,
50,
48,
46,
44,
42,
40,
38,
36,
35,
32,
31,
29,
27,
26,
23,
23,
20,
19,
17,
16,
14,
12,
12,
8,
8,
7,
5,
3,
3,
2,
0,
-2,
-3,
-4,
-5,
-6,
-8,
-9,
-10,
-12,
-12,
-14,
-14,
-16,
-17,
-17,
-19,
-20,
-20,
-21,
-23,
-24,
-25,
-25,
-26,
-27,
-28,
-30,
-30,
-30,
-31,
-32,
-33,
-33,
-35,
-35,
-36,
-37,
-38,
-38,
-39,
-40,
-41,
-41,
-41,
-42,
-43,
-44,
-44,
-44,
-45,
-45,
-46,
-46,
-47,
-48,
-49,
-48,
-49,
-50,
-50,
-51,
-51,
-52,
-52,
-52,
-53,
-54,
-54,
-55,
-54,
-55,
-56,
-56,
-56,
-57,
-57,
-58,
-57,
-59,
-60,
-59,
-60,
-60,
-60,
-60,
-61,
-61,
-61,
-61,
-62,
-62,
-62,
-62,
-63,
-64,
-64,
-64,
-64,
-64,
-65,
-65,
-65,
-65,
-65,
-67,
-66,
-67,
-66,
-68,
-68,
-68,
-68,
-68,
-68,
-69,
-69,
-69,
-69,
-69,
-69,
-70,
-69,
-69,
-70,
-70,
-70,
-71,
-71,
-71,
-71,
-70,
-72,
-71,
-71,
-72,
-72,
-72,
-72,
-72,
-72,
-73,
-73,
-73,
-73,
-73,
-73,
-73,
-74,
-73,
-74,
-74,
-74,
-73,
-74,
-74,
-74,
-75,
-74,
-74,
-75,
-75,
-74,
-75,
-75,
-75,
-75,
-75,
-75,
-75,
-76,
-76,
-76,
-76,
-76,
-76,
-76,
-76,
-76,
-76,
-77,
-76,
-77,
-76,
-76,
-77,
-77,
-77,
-77,
-77,
-77,
-77,
-77,
-77,
-77,
-77,
-78,
-77,
-77,
-77,
-77,
-77,
-78,
-77,
-78,
-77,
-77,
-78,
-77,
-78,
-78,
-78,
-78,
-78,
-78,
-78,
-78,
-78,
-78,
-78,
-78,
-78,
-78,
-77,
-78,
-78,
-78,
-78,
-79,
-80,
-79,
-79,
-79,
-79,
-78,
-78,
-79,
-78,
-78,
-80,
-79,
-79,
-79,
-79,
-80,
-79,
-79,
-79,
-80,
-80,
-80,
-79,
-80,
-79,
-80,
-79,
-79,
-79,
-80,
-80,
-79,
-80,
-79,
-79,
-80,
-79,
-79,
-80,
-80,
-79,
-80,
-80,
-79,
-80,
-80,
-80,
-80,
-80,
-79,
-80,
-80,
-80,
-80,
-80,
-80,
-80,
-79,
-80,
-80,
-80,
-80,
-80,
-79,
-79,
-80,
-80,
-80,
-80,
-80,
-80,
-79,
-80,
-80,
-80,
-80,
-80,
-80,
-80,
-80,
-80,
-80,
-80,
-80,
-80,
-80,
-80,
-80,
-80,
-80,
-80,
-80,
-80,
-80,
-80,
-80,
-80,
-80,
-80,
-80,
-80,
-80,
-80,
-80,
-80,
-80,
-79,
-80,
-80,
-80,
-80,
-80,
-80,
-80,
-80,
-80,
-80,
-80,
-80,
-80,
-80,
-80,
-80,
-80,
-80,
-80,
-80,
-80,
-80,
-80,
-80,
-80,
-80,
-80,
-80,
-80,
-80,
-80,
-80,
-80,
-80,
-80,
-80,
-80,
-80,
-80,
-80,
-81,
-80,
-80,
-80,
-80,
-81,
-80,
-80,
-80,
-80,
-80,
-80,
-80,
-80,
-80,
-80,
-80,
-80,
-80,
-80,
-80,
-80,
-80,
-80,
-80,
-80,
-80,
-80,
-80,
-80,
-80,
-81,
-81,
-80,
-81,
-80,
-80,
-80,
-80,
-80,
-81,
-80,
-80,
-80,
-80,
-80,
-80,
-81,
-80,
-80,
-80,
-80,
-80,
-80,
-80,
-80,
-80,
-80,
-80,
-80,
-80,
-81,
-80,
-80,
-80,
-80,
-80,
-80,
-80,
-80,
-80,
-80,
-80,
-80,
-80,
-80,
-80,
-80,
-80,
-80,
-80,
-80,
-80,
-80,
-80,
-80,
-80,
-80,
-81,
-80,
-80,
-80,
-80,
-80,
-81,
-80,
-80,
-80,
-80,
-80,
-80,
-80,
-80,
-80,
-80,
-80,
-80,
-80,
-80,
-80,
-80,
-80,
-80,
-80,
-80,
-81,
-80,
-80,
-80,
-80,
-81,
-80,
-80,
-80,
-80,
-80,
-80,
-80,
-80,
-80,
-80,
-80,
-81,
-80,
-80,
-80,
-80,
-80,
-80,
-80,
-79,
-80,
-80,
-80,
-81,
-80,
-80,
-80,
-80,
-80,
-79,
-80,
-80,
-80,
-80,
-80,
-80,
-81,
-80,
-80,
-81,
-80,
-80,
-80,
-80,
-80,
-80,
-80,
-80,
-80,
-80,
-81,
-80,
-80,
-81,
-80,
-80,
-80,
-80,
-80,
-80,
-80,
-80,
-80,
-80,
-80,
-80,
-80,
-80,
-80,
-80,
-80,
-80,
-80,
-80,
-80,
-80,
-80,
-80,
-80,
-80,
-80,
-80,
-80,
-80,
-80,
-80,
-80,
-80,
-80,
-80,
-80,
-80,
-80,
-80,
-80,
-80,
-80,
-80,
-80,
-80,
-80,
-80,
-80,
-80,
-80,
-80,
-80,
-80,
-80,
-80,
-80,
-80,
-80,
-81,
-80,
-80,
-80,
-80,
-80,
-80,
-80,
-80,
-80,
-80,
-80,
-80,
-80,
-80,
-80,
-80,
-80,
-80,
-80,
-80,
-80,
-81,
-80,
-80,
-80,
-80,
-80,
-80,
-80,
-80,
-80,
-80,
-80,
-81,
-80,
-80,
-79,
-80,
-80,
-80,
-80,
-80,
-80,
-81,
-80,
-80,
-80,
-80,
-80,
-80,
-80,
-80,
-80,
-80,
-80,
-80,
-80,
-80,
-80,
-80,
-80,
-80,
-80,
-80,
-80,
-80,
-81,
-80,
-80,
-80,
-80,
-80,
-80,
-80,
-80,
-81,
-80,
-80,
-80,
-80,
-80,
-80,
-80,
-80,
-80,
-80,
-80,
-80,
-80,
-80,
-80,
-80,
-80,
-80,
-80,
-80,
-80,
-80,
-80,
-80,
-80,
-81,
-80,
-80,
-80,
-80,
-80,
-80,
-80,
-80,
-80,
-80,
-81,
-80,
-80,
-80,
-80,
-80,
-80,
-80,
-80,
-80,
-80,
-80,
-80,
-80,
-80,
-80,
-80,
-80,
-80,
-80,
-80,
-81,
-80,
-80,
-80,
-80,
-80,
-80,
-80,
-80,
-80,
-80,
-80,
-80,
-80,
-80,
-80,
-80,
-80,
-80,
-80,
-80,
-80,
-80,
-80,
-80,
-80,
-80,
-80,
-80,
-80,
-80,
-80,
-80,
-80,
-80,
-81,
-80,
-80,
-80,
-80,
-80,
-80,
-81,
-81,
-80,
-80,
-80,
-80,
-80,
-80,
-81,
-80,
-80,
-80,
-80,
-80,
-80,
-81,
-80,
-80,
-80,
-80,
-80,
-80,
-80,
-80,
-80,
-80,
-80,
-80,
-79,
-80,
-80,
-80,
-80,
-80,
-80,
-80,
-80,
-80,
-80,
-80,
-80,
-80,
-80,
-80,
-80,
-80,
-80,
-80,
-80,
-80,
-80,
-81,
-80,
-80,
-80,
-80,
-80,
-80,
-81,
-80,
-80,
-80,
-80,
-80,
-80,
-80,
-80,
-80,
-81,
-80,
-80,
-80,
-81,
-80,
-80,
-81,
-80,
-80,
-80,
-80,
-81,
-80,
-80,
-81,
-80,
-80,
-81,
-80,
-80,
-80,
-80,
-80,
-80,
-80,
-80,
-79,
-80,
-80,
-80,
-80,
-80,
-80,
-80,
-80,
-80,
-80,
-80,
-80,
-80,
-80,
-80,
-80,
-80,
-80,
-80,
-80,
-80,
-80,
-80,
-80,
-80,
-80,
-80,
-80,
-80,
-80,
-80,
-80,
-80,
-80,
-80,
-81,
-80,
-80,
-80,
-80,
-80,
-80,
-80,
-80,
-80,
-80,
-80,
-79,
-80,
-80,
-80,
-80,
-80,
-80,
-80,
-80,
-80,
-80,
-80,
-80,
-80,
-80,
-80,
-81,
-80,
-80,
-79,
-80,
-80,
-80,
-80,
-78,
-76,
-75,
-72,
-70,
-68,
-65,
-64,
-62,
-60,
-58,
-57,
-55,
-53,
-52,
-50,
-48,
-46,
-45,
-44,
-42,
-40,
-39,
-37,
-36,
-34,
-33,
-32,
-30,
-28,
-28,
-26,
-25,
-24,
-22,
-21,
-20,
-18,
-18,
-16,
-16,
-14,
-13,
-12,
-11,
-10,
-9,
-8,
-8,
-6,
-5,
-4,
-4,
-2,
-2,
-1,
0,
1,
2,
3,
4,
4,
5,
6,
6,
7,
8,
8,
9,
10,
10,
12,
12,
12,
13,
13,
15,
16,
16,
16,
17,
18,
19,
19,
19,
20,
20,
21,
22,
22,
22,
23,
24,
24,
24,
24,
25,
26,
26,
27,
27,
28,
28,
28,
28,
29,
30,
30,
31,
31,
31,
32,
32,
32,
32,
32,
33,
32,
34,
33,
34,
35,
34,
35,
35,
35,
36,
37,
37,
36,
37,
37,
37,
37,
38,
38,
39,
38,
39,
39,
39,
39,
39,
40,
40,
40,
40,
40,
40,
41,
41,
41,
42,
42,
42,
42,
43,
42,
42,
43,
43,
43,
43,
43,
43,
44,
44,
44,
44,
44,
44,
45,
44,
44,
44,
44,
46,
45,
45,
45,
45,
46,
46,
46,
47,
46,
46,
46,
47,
47,
47,
47,
47,
47,
47,
47,
47,
47,
47,
48,
48,
48,
48,
48,
48,
48,
48,
48,
48,
48,
48,
48,
48,
48,
49,
48,
48,
49,
48,
49,
48,
49,
49,
49,
49,
49,
49,
49,
49,
49,
50,
49,
50,
50,
50,
50,
50,
50,
50,
50,
50,
50,
50,
50,
50,
51,
50,
51,
51,
51,
50,
50,
51,
51,
51,
51,
50,
50,
51,
51,
51,
51,
51,
51,
51,
50,
51,
51,
51,
52,
50,
51,
51,
51,
51,
51,
51,
51,
51,
51,
51,
51,
51,
51,
51,
51,
51,
51,
51,
52,
51,
51,
52,
51,
51,
51,
51,
51,
51,
51,
51,
52,
52,
52,
51,
52,
52,
51,
52,
52,
52,
52,
51,
51,
52,
51,
51,
51,
52,
52,
52,
52,
52,
52,
52,
51,
52,
52,
52,
52,
52,
52,
52,
52,
52,
52,
52,
52,
52,
52,
52,
52,
52,
52,
51,
52,
52,
52,
52,
52,
52,
52,
51,
52,
52,
52,
52,
52,
52,
52,
52,
52,
52,
52,
52,
52,
52,
52,
52,
52,
52,
52,
52,
52,
52,
52,
52,
52,
52,
53,
52,
52,
52,
52,
52,
52,
52,
52,
52,
52,
52,
52,
52,
52,
52,
52,
52,
52,
52,
52,
52,
52,
52,
52,
52,
52,
52,
52,
51,
52,
52,
52,
52,
52,
52,
52,
52,
52,
52,
52,
52,
52,
52,
52,
52,
52,
52,
52,
52,
52,
52,
52,
52,
52,
52,
52,
52,
52,
52,
52,
52,
52,
52,
52,
52,
52,
52,
52,
52,
52,
52,
52,
52,
52,
52,
52,
52,
52,
52,
52,
52,
51,
52,
52,
52,
52,
52,
52,
52,
52,
52,
52,
52,
52,
52,
52,
52,
52,
52,
52,
52,
52,
52,
53,
52,
52,
52,
53,
52,
52,
52,
52,
52,
52,
52,
52,
52,
52,
52,
52,
52,
52,
52,
53,
52,
52,
52,
52,
52,
52,
52,
52,
52,
52,
52,
52,
52,
52,
51,
52,
52,
52,
52,
52,
52,
52,
52,
52,
52,
52,
52,
52,
52,
52,
52,
52,
52,
52,
52,
52,
52,
52,
52,
52,
52,
52,
52,
52,
52,
52,
51,
52,
52,
52,
52,
52,
52,
52,
52,
52,
52,
52,
52,
52,
52,
52,
52,
52,
52,
52,
52,
52,
52,
52,
52,
52,
52,
51,
52,
52,
52,
52,
52,
52,
52,
52,
52,
52,
53,
52,
52,
52,
52,
52,
52,
52,
52,
52,
52,
52,
52,
52,
52,
52,
52,
52,
52,
52,
52,
52,
52,
52,
52,
52,
52,
52,
52,
51,
52,
52,
52,
52,
52,
52,
52,
52,
52,
52,
51,
52,
52,
52,
52,
52,
52,
52,
52,
52,
52,
52,
52,
52,
52,
52,
52,
52,
52,
52,
52,
51,
52,
52,
52,
52,
52,
52,
52,
52,
52,
52,
52,
52,
52,
52,
52,
52,
52,
52,
52,
52,
52,
52,
52,
52,
52,
52,
52,
52,
52,
52,
52,
52,
52,
52,
52,
52,
52,
52,
52,
52,
52,
52,
52,
52,
52,
52,
52,
52,
52,
52,
52,
52,
52,
52,
52,
52,
52,
52,
52,
53,
52,
52,
52,
52,
51,
52,
52,
52,
52,
52,
52,
52,
52,
52,
52,
52,
52,
52,
52,
52,
52,
52,
52,
52,
52,
52,
52,
52,
52,
52,
52,
52,
52,
52,
52,
51,
52,
52,
52,
52,
52,
52,
52,
52,
52,
52,
52,
52,
52,
52,
52,
52,
52,
52,
52,
52,
52,
52,
52,
52,
51,
52,
52,
52,
52,
52,
52,
52,
52,
52,
52,
52,
52,
52,
52,
51,
52,
52,
52,
52,
52,
52,
52,
52,
52,
52,
52,
52,
52,
52,
52,
52,
52,
52,
52,
52,
51,
52,
52,
51,
51,
53,
52,
52,
52,
52,
52,
52,
52,
52,
52,
52,
52,
52,
52,
52,
52,
52,
52,
52,
52,
52,
52,
52,
52,
52,
52,
52,
52,
52,
52,
52,
51,
52,
52,
52,
52,
52,
52,
52,
52,
52,
52,
52,
52,
52,
52,
52,
52,
52,
52,
52,
52,
52,
52,
52,
52,
52,
52,
52,
52,
52,
52,
52,
52,
52,
52,
52,
52,
52,
52,
52,
52,
52,
52,
52,
51,
52,
52,
52,
52,
52,
52,
52,
52,
52,
52,
52,
52,
52,
52,
52,
52,
52,
52,
52,
52,
52,
52,
52,
52,
52,
52,
52,
52,
53,
52,
52,
53,
52,
52,
52,
52,
52,
52,
52,
52,
52,
52,
52,
50,
48,
46,
44,
42,
40,
38,
35,
34,
32,
31,
28,
27,
25,
24,
21,
20,
19,
16,
15,
13,
12,
10,
9,
7,
6,
4,
3,
2,
0,
0,
-1,
-3,
-5,
-6,
-7,
-8,
-10,
-11,
-12,
-13,
-13,
-15,
-16,
-17,
-17,
-20,
-20,
-21,
-22,
-22,
-24,
-25,
-26,
-27,
-28,
-28,
-29,
-30,
-30,
-32,
-32,
-33,
-34,
-34,
-35,
-37,
-37,
-38,
-38,
-39,
-40,
-40,
-41,
-42,
-42,
-43,
-43,
-44,
-45,
-45,
-45,
-46,
-46,
-47,
-48,
-49,
-49,
-49,
-50,
-50,
-50,
-52,
-52,
-52,
-53,
-54,
-53,
-54,
-54,
-55,
-56,
-56,
-56,
-57,
-57,
-57,
-57,
-58,
-59,
-59,
-59,
-60,
-60,
-60,
-60,
-60,
-61,
-61,
-62,
-62,
-62,
-62,
-63,
-63,
-64,
-64,
-64,
-64,
-64,
-65,
-65,
-66,
-65,
-65,
-66,
-66,
-66,
-66,
-67,
-67,
-67,
-68,
-68,
-69,
-68,
-68,
-69,
-69,
-69,
-69,
-70,
-69,
-70,
-70,
-70,
-70,
-70,
-70,
-71,
-71,
-71,
-71,
-71,
-72,
-72,
-72,
-72,
-72,
-72,
-72,
-72,
-73,
-73,
-73,
-73,
-73,
-73,
-73,
-74,
-73,
-74,
-73,
-74,
-74,
-74,
-74,
-74,
-75,
-75,
-75,
-75,
-75,
-75,
-75,
-75,
-75,
-76,
-75,
-76,
-75,
-76,
-76,
-76,
-76,
-76,
-76,
-76,
-76,
-76,
-76,
-77,
-76,
-76,
-76,
-77,
-77,
-76,
-77,
-77,
-77,
-77,
-77,
-77,
-77,
-77,
-77,
-77,
-77,
-77,
-77,
-77,
-78,
-78,
-78,
-78,
-78,
-77,
-78,
-78,
-78,
-78,
-78,
-78,
-78,
-77,
-78,
-77,
-78,
-78,
-78,
-78,
-79,
-78,
-78,
-78,
-78,
-78,
-79,
-79,
-78,
-78,
-78,
-78,
-78,
-79,
-78,
-79,
-79,
-78,
-78,
-78,
-79,
-79,
-79,
-79,
-79,
-78,
-78,
-79,
-79,
-80,
-79,
-79,
-79,
-80,
-80,
-80,
-80,
-79,
-79,
-80,
-79,
-79,
-80,
-80,
-80,
-79,
-79,
-79,
-80,
-80,
-79,
-80,
-80,
-80,
-80,
-80,
-80,
-79,
-80,
-80,
-80,
-80,
-80,
-80,
-79,
-79,
-79,
-80,
-80,
-80,
-80,
-80,
-80,
-80,
-80,
-80,
-80,
-80,
-80,
-80,
-80,
-80,
-80,
-80,
-80,
-80,
-80,
-79,
-80,
-79,
-80,
-80,
-80,
-80,
-80,
-80,
-80,
-80,
-80,
-80,
-80,
-80,
-80,
-80,
-80,
-80,
-80,
-80,
-80,
-80,
-80,
-80,
-80,
-80,
-80,
-80,
-80,
-80,
-80,
-80,
-80,
-80,
-80,
-80,
-80,
-80,
-80,
-80,
-80,
-80,
-81,
-80,
-80,
-80,
-80,
-80,
-81,
-80,
-80,
-80,
-80,
-80,
-80,
-80,
-80,
-80,
-80,
-80,
-80,
-80,
-80,
-80,
-80,
-80,
-80,
-80,
-80,
-81,
-80,
-80,
-80,
-80,
-80,
-80,
-80,
-80,
-80,
-80,
-80,
-80,
-80,
-80,
-80,
-80,
-80,
-80,
-80,
-80,
-80,
-80,
-80,
-80,
-80,
-80,
-80,
-80,
-80,
-80,
-80,
-80,
-80,
-80,
-80,
-80,
-80,
-80,
-80,
-80,
-80,
-80,
-80,
-80,
-80,
-80,
-80,
-81,
-80,
-80,
-80,
-80,
-80,
-80,
-81,
-80,
-80,
-80,
-80,
-80,
-80,
-80,
-81,
-80,
-80,
-80,
-80,
-81,
-80,
-80,
-80,
-80,
-81,
-80,
-80,
-80,
-80,
-80,
-80,
-80,
-80,
-80,
-80,
-80,
-80,
-80,
-80,
-80,
-81,
-80,
-80,
-81,
-80,
-80,
-80,
-80,
-80,
-80,
-80,
-81,
-80,
-80,
-80,
-80,
-80,
-80,
-80,
-80,
-80,
-80,
-80,
-80,
-80,
-80,
-80,
-80,
-80,
-80,
-80,
-80,
-80,
-80,
-80,
-80,
-80,
-80,
-80,
-80,
-80,
-80,
-80,
-80,
-80,
-80,
-80,
-80,
-81,
-80,
-80,
-80,
-80,
-80,
-80,
-80,
-80,
-80,
-80,
-80,
-80,
-80,
-80,
-80,
-80,
-80,
-80,
-80,
-80,
-80,
-80,
-81,
-80,
-80,
-80,
-80,
-80,
-80,
-81,
-80,
-80,
-80,
-80,
-80,
-80,
-80,
-80,
-80,
-80,
-80,
-80,
-80,
-81,
-81,
-80,
-80,
-80,
-80,
-80,
-80,
-81,
-80,
-80,
-81,
-80,
-80,
-80,
-80,
-80,
-80,
-80,
-80,
-80,
-80,
-80,
-81,
-80,
-80,
-80,
-80,
-80,
-80,
-80,
-80,
-80,
-80,
-80,
-80,
-80,
-80,
-80,
-80,
-80,
-80,
-80,
-80,
-80,
-80,
-80,
-80,
-80,
-80,
-80,
-80,
-80,
-80,
-80,
-81,
-80,
-80,
-81,
-80,
-80,
-80,
-80,
-80,
-80,
-80,
-80,
-80,
-80,
-80,
-81,
-80,
-80,
-80,
-80,
-80,
-80,
-80,
-80,
-80,
-80,
-80,
-80,
-80,
-80,
-80,
-80,
-80,
-81,
-80,
-80,
-80,
-80,
-80,
-80,
-80,
-80,
-80,
-81,
-80,
-80,
-80,
-80,
-80,
-81,
-80,
-80,
-80,
-80,
-80,
-80,
-80,
-80,
-80,
-80,
-80,
-80,
-80,
-80,
-81,
-80,
-80,
-80,
-80,
-80,
-80,
-80,
-80,
-80,
-80,
-80,
-81,
-80,
-80,
-80,
-80,
-80,
-80,
-80,
-80,
-80,
-80,
-80,
-81,
-80,
-80,
-80,
-80,
-80,
-80,
-80,
-80,
-80,
-80,
-80,
-80,
-80,
-80,
-80,
-80,
-80,
-80,
-80,
-81,
-80,
-80,
-80,
-80,
-80,
-80,
-81,
-80,
-80,
-80,
-81,
-80,
-80,
-80,
-80,
-80,
-80,
-80,
-80,
-80,
-80,
-80,
-80,
-80,
-80,
-81,
-80,
-80,
-80,
-80,
-80,
-80,
-80,
-80,
-80,
-80,
-80,
-80,
-80,
-80,
-80,
-80,
-80,
-80,
-80,
-80,
-80,
-80,
-80,
-80,
-80,
-80,
-80,
-80,
-80,
-80,
-80,
-80,
-80,
-80,
-80,
-80,
-80,
-80,
-80,
-80,
-80,
-80,
-80,
-81,
-80,
-80,
-80,
-80,
-80,
-80,
-81,
-80,
-80,
-80,
-80,
-80,
-80,
-80,
-80,
-80,
-80,
-80,
-80,
-80,
-80,
-80,
-80,
-80,
-80,
-80,
-80,
-80,
-81,
-80,
-81,
-80,
-80,
-80,
-80,
-80,
-80,
-80,
-79,
-80,
-80,
-80,
-80,
-80,
-80,
-80,
-80,
-80,
-80,
-80,
-80,
-80,
-80,
-80,
-80,
-80,
-80,
-80,
-80,
-80,
-81,
-80,
-80,
-80,
-80,
-80,
-80,
-80,
-80,
-80,
-80,
-80,
-81,
-80,
-80,
-80,
-80,
-80,
-81,
-80,
-80,
-80,
-80,
-80,
-80,
-80,
-80,
-80,
-81,
-80,
-80,
-80,
-80,
-81,
-80,
-80,
-80,
-80,
-80,
-80,
-80,
-80,
-80,
-80,
-80,
-80,
-80,
-81,
-80,
-80,
-80,
-80,
-80,
-80,
-80,
-80,
-80,
-80,
-81,
-80,
-80,
-80,
-80,
-80,
-80,
-80,
-80,
-80,
-80,
-80,
-80,
-80,
-80,
-80,
-80,
-80,
-80,
-80,
-80,
-80,
-80,
-80,
-80,
-80,
-80,
-80,
-80,
-80,
-80,
-80,
-80,
-80,
-80,
-80,
-80,
-80,
-80,
-80,
-80,
-78,
-76,
-73,
-72,
-70,
-68,
-66,
-64,
-62,
-60,
-58,
-57,
-55,
-53,
-51,
-49,
-48,
-46,
-45,
-43,
-42,
-41,
-39,
-37,
-35,
-34,
-32,
-32,
-30,
-28,
-27,
-26,
-24,
-24,
-22,
-21,
-20,
-19,
-18,
-16,
-16,
-14,
-13,
-12,
-12,
-10,
-9,
-8,
-7,
-5,
-5,
-5,
-3,
-3,
-1,
0,
0,
2,
2,
2,
4,
4,
5,
6,
7,
7,
8,
8,
9,
10,
11,
11,
12,
12,
13,
15,
15,
16,
16,
16,
17,
18,
18,
19,
19,
20,
20,
20,
22,
22,
22,
23,
23,
24,
24,
25,
24,
26,
26,
27,
27,
27,
27,
28,
28,
28,
28,
30,
30,
31,
31,
31,
32,
32,
32,
32,
33,
33,
34,
34,
34,
35,
35,
35,
35,
35,
36,
36,
36,
36,
36,
37,
37,
38,
38,
38,
39,
38,
39,
39,
39,
39,
39,
40,
40,
40,
40,
41,
41,
41,
40,
41,
42,
42,
41,
42,
43,
42,
43,
43,
43,
43,
43,
43,
43,
43,
44,
44,
44,
44,
44,
44,
44,
44,
44,
44,
45,
45,
46,
46,
45,
46,
46,
46,
46,
46,
47,
47,
47,
46,
47,
47,
47,
47,
47,
47,
47,
48,
47,
47,
47,
48,
48,
48,
47,
48,
48,
48,
48,
48,
48,
48,
48,
48,
48,
49,
49,
49,
48,
48,
50,
49,
49,
49,
49,
50,
49,
49,
49,
49,
49,
50,
50,
49,
50,
50,
50,
50,
50,
50,
50,
50,
50,
50,
50,
50,
51,
51,
50,
51,
50,
51,
51,
51,
51,
51,
50,
51,
50,
50,
51,
51,
51,
50,
51,
51,
51,
50,
51,
51,
51,
51,
51,
51,
51,
51,
51,
51,
50,
51,
51,
52,
51,
52,
52,
51,
51,
52,
51,
51,
51,
52,
51,
52,
52,
51,
52,
52,
51,
51,
52,
51,
51,
52,
52,
52,
51,
51,
51,
52,
52,
52,
52,
52,
51,
52,
52,
52,
52,
52,
52,
51,
52,
52,
52,
52,
52,
52,
51,
52,
52,
51,
52,
52,
51,
52,
52,
52,
52,
52,
52,
52,
52,
51,
52,
52,
52,
52,
52,
51,
52,
52,
51,
52,
52,
52,
52,
52,
52,
52,
52,
52,
52,
52,
52,
51,
52,
52,
52,
52,
52,
52,
52,
52,
52,
52,
52,
52,
52,
52,
52,
52,
52,
52,
52,
52,
52,
52,
52,
52,
52,
52,
52,
52,
52,
52,
52,
52,
52,
52,
52,
52,
52,
52,
52,
52,
52,
52,
52,
52,
52,
52,
52,
52,
52,
52,
52,
52,
52,
52,
52,
52,
52,
52,
52,
52,
52,
53,
52,
52,
52,
52,
52,
52,
52,
52,
52,
53,
52,
52,
52,
52,
52,
52,
52,
52,
52,
52,
52,
52,
52,
52,
52,
52,
52,
52,
53,
52,
52,
52,
52,
52,
52,
52,
52,
52,
52,
52,
52,
53,
52,
52,
52,
52,
52,
52,
52,
52,
53,
52,
52,
51,
52,
52,
52,
52,
52,
52,
52,
52,
52,
52,
52,
52,
52,
52,
52,
52,
52,
52,
52,
52,
52,
52,
52,
52,
52,
52,
52,
52,
52,
52,
52,
53,
52,
52,
52,
52,
52,
52,
52,
52,
52,
52,
52,
52,
52,
53,
51,
52,
52,
52,
52,
52,
52,
52,
52,
52,
52,
52,
52,
52,
52,
52,
52,
52,
52,
52,
52,
52,
52,
52,
52,
52,
52,
52,
52,
52,
52,
52,
52,
52,
52,
52,
52,
52,
52,
52,
52,
52,
52,
52,
52,
52,
52,
52,
52,
52,
52,
52,
52,
52,
52,
52,
52,
52,
52,
52,
52,
52,
52,
52,
52,
52,
52,
52,
52,
52,
52,
52,
52,
52,
52,
52,
52,
52,
52,
52,
52,
52,
52,
52,
52,
53,
52,
52,
52,
52,
52,
52,
52,
52,
52,
52,
52,
52,
52,
53,
52,
52,
52,
52,
52,
52,
51,
52,
52,
53,
52,
52,
52,
52,
52,
52,
52,
52,
52,
52,
52,
52,
52,
52,
52,
52,
52,
52,
52,
52,
52,
52,
52,
52,
52,
52,
52,
52,
52,
52,
52,
52,
52,
52,
52,
52,
52,
52,
52,
52,
52,
52,
52,
52,
52,
52,
52,
52,
52,
52,
