A0008CH1.CSV

Memory Length,4000,
Trigger Level,4.600E-01,
Source,CH1,
Vertical Units,V,
Vertical Scale,2.000E-02,
Vertical Position,8.000E-04,
Horizontal Units,s,
Horizontal Scale,1.000E-03,
Horizontal Position,-1.320E-03,
Horizontal Mode,Main,
Sampling Period,4.000E-06,
Firmware, V1.12,
Waveform Data,
70,
70,
86,
82,
84,
81,
86,
85,
79,
80,
84,
82,
85,
80,
86,
75,
80,
81,
81,
79,
78,
79,
74,
80,
78,
78,
78,
75,
74,
73,
85,
78,
81,
78,
77,
79,
79,
83,
78,
73,
78,
77,
79,
75,
90,
71,
75,
71,
72,
74,
75,
67,
78,
74,
79,
66,
69,
73,
73,
59,
72,
74,
71,
69,
73,
71,
75,
58,
70,
73,
73,
71,
72,
67,
69,
67,
68,
72,
74,
72,
70,
79,
61,
66,
69,
69,
69,
72,
68,
76,
73,
70,
69,
70,
68,
70,
71,
66,
70,
70,
68,
69,
68,
71,
75,
67,
66,
69,
68,
70,
66,
73,
66,
67,
67,
70,
68,
68,
45,
69,
67,
66,
70,
67,
66,
73,
59,
65,
67,
71,
66,
66,
69,
76,
68,
66,
66,
66,
65,
64,
61,
72,
77,
70,
66,
67,
67,
68,
55,
64,
70,
65,
66,
66,
71,
75,
67,
65,
69,
62,
66,
59,
51,
73,
70,
67,
65,
66,
64,
70,
57,
65,
66,
66,
67,
68,
68,
74,
66,
63,
65,
63,
66,
66,
47,
61,
64,
67,
64,
66,
63,
67,
73,
67,
65,
66,
64,
70,
64,
62,
68,
66,
62,
67,
66,
63,
72,
63,
67,
66,
65,
65,
65,
60,
57,
65,
65,
65,
66,
65,
65,
75,
71,
66,
67,
65,
66,
65,
59,
65,
63,
65,
70,
66,
65,
67,
76,
67,
63,
68,
67,
68,
78,
62,
60,
68,
66,
66,
64,
62,
63,
68,
65,
65,
66,
66,
62,
74,
66,
67,
67,
67,
66,
67,
79,
60,
64,
65,
65,
66,
65,
62,
57,
66,
66,
67,
64,
67,
63,
78,
66,
68,
64,
67,
67,
68,
59,
60,
67,
71,
66,
65,
65,
62,
58,
65,
66,
68,
66,
68,
62,
62,
68,
73,
67,
69,
66,
66,
76,
67,
66,
66,
64,
67,
67,
68,
63,
71,
66,
65,
66,
68,
76,
58,
63,
66,
65,
70,
69,
67,
54,
68,
70,
67,
67,
68,
69,
73,
69,
65,
67,
69,
70,
67,
67,
66,
68,
70,
66,
68,
68,
61,
58,
67,
67,
67,
68,
69,
67,
64,
74,
69,
67,
69,
70,
71,
76,
66,
67,
67,
67,
66,
67,
45,
64,
69,
66,
65,
65,
69,
58,
72,
65,
65,
62,
62,
58,
57,
-44,
-129,
-129,
-129,
-129,
-129,
-129,
-129,
-129,
-129,
-129,
-129,
-129,
-129,
-129,
-129,
-129,
-129,
-129,
-129,
-129,
-129,
-129,
-129,
-129,
-129,
-129,
-129,
-129,
-129,
-129,
-129,
-129,
-129,
-129,
-129,
-129,
-129,
-129,
-129,
-129,
-129,
-129,
-129,
-129,
-129,
-129,
-129,
-129,
-129,
-129,
-129,
-129,
-129,
-129,
-129,
-129,
-129,
-129,
-129,
-129,
-129,
-129,
-129,
-129,
-129,
-129,
-129,
-129,
-129,
-129,
-129,
-129,
-129,
-129,
-129,
-129,
-129,
-129,
-129,
-129,
-129,
-129,
-129,
-129,
-129,
-129,
-129,
-129,
-129,
-129,
-129,
-129,
-129,
-129,
-129,
-129,
-129,
-129,
-129,
-129,
-129,
-129,
-129,
-129,
-129,
-129,
-129,
-129,
-129,
-129,
-129,
-129,
-129,
-129,
-129,
-129,
-129,
-129,
-129,
-129,
-129,
-129,
-129,
-129,
-129,
-129,
-129,
-129,
-129,
-129,
-129,
-129,
-129,
-129,
-129,
-129,
-129,
-129,
-129,
-129,
-129,
-129,
-129,
-129,
-129,
-129,
-129,
-129,
-129,
-129,
-129,
-129,
-129,
-129,
-129,
-129,
-129,
-129,
-129,
-129,
-129,
-129,
-129,
-129,
-129,
-129,
-129,
-129,
-129,
-129,
-129,
-129,
-129,
-129,
-129,
-129,
-129,
-129,
-129,
-129,
-129,
-129,
-129,
-129,
-129,
-129,
-129,
-129,
-129,
-129,
-129,
-129,
-129,
-129,
-129,
-129,
-129,
-129,
-129,
-129,
-129,
-129,
-129,
-129,
-129,
-129,
-129,
-129,
-129,
-129,
-129,
-129,
-129,
-129,
-129,
-129,
-129,
-129,
-129,
-129,
-129,
-129,
-129,
-129,
-129,
-129,
-129,
-129,
-129,
-129,
-129,
-129,
-129,
-129,
-129,
-129,
-129,
-129,
-129,
-129,
-129,
-129,
-129,
-129,
-129,
-129,
-129,
-129,
-129,
-129,
-129,
-129,
-129,
-129,
-129,
-129,
-129,
-129,
-129,
-129,
-129,
-129,
-129,
-129,
-129,
-129,
-129,
-129,
-129,
-129,
-129,
-129,
-129,
-129,
-129,
-129,
-129,
-129,
-129,
-129,
-129,
-129,
-129,
-129,
-129,
-129,
-129,
-129,
-129,
-129,
-129,
-129,
-129,
-129,
-129,
-129,
-129,
-129,
-129,
-129,
-129,
-129,
-129,
-129,
-129,
-129,
-129,
-129,
-129,
-129,
-129,
-129,
-129,
-129,
-129,
-129,
-129,
-129,
-129,
-129,
-129,
-129,
-129,
-129,
-129,
-129,
-129,
-129,
-129,
-129,
-129,
-129,
-129,
-129,
-129,
-129,
-129,
-129,
-129,
-129,
-129,
-129,
-129,
-129,
-129,
-129,
-129,
-129,
-129,
-129,
-129,
-129,
-129,
-129,
-129,
-129,
-129,
-129,
-129,
-129,
-129,
-129,
-129,
-129,
-129,
-129,
-129,
-129,
-129,
-129,
-129,
-129,
-129,
-129,
-129,
-129,
-129,
-129,
-129,
-129,
-129,
-129,
-129,
-129,
-129,
-129,
-129,
-129,
-129,
-129,
-129,
-129,
-129,
-129,
-129,
-129,
-129,
-129,
-129,
-129,
-129,
-129,
-129,
-129,
-129,
-129,
-129,
-129,
-129,
-129,
-129,
-129,
-129,
-129,
-129,
-129,
-129,
-129,
-129,
-129,
-129,
-129,
-129,
-129,
-129,
-129,
-129,
-129,
-129,
-129,
-129,
-129,
-129,
-129,
-129,
-129,
-129,
-129,
-129,
-129,
-129,
-129,
-129,
-129,
-129,
-129,
-129,
-129,
-129,
-129,
-129,
-129,
-129,
-129,
-129,
-129,
-129,
-129,
-129,
-129,
-129,
-129,
-129,
-129,
-129,
-129,
-129,
-129,
-129,
-129,
-129,
-129,
-129,
-129,
-129,
-129,
-129,
-129,
-129,
-129,
-129,
-129,
-129,
-129,
-129,
-129,
-129,
-129,
-129,
-129,
-129,
-129,
-129,
-129,
-129,
-129,
-129,
-129,
-129,
-129,
-129,
-129,
-129,
-129,
-129,
-129,
-129,
-129,
-129,
-129,
-129,
-129,
-129,
-129,
-129,
-129,
-129,
-129,
-129,
-129,
-129,
-129,
-129,
-129,
-129,
-129,
-129,
-129,
-129,
-129,
-129,
-129,
-129,
-129,
-129,
-129,
-129,
-129,
-129,
-129,
-129,
-129,
-129,
-129,
-129,
-129,
-129,
-129,
-129,
-129,
-129,
-129,
-129,
-129,
-129,
-129,
-129,
-129,
-129,
-129,
-129,
-129,
-129,
-129,
-129,
-129,
-129,
-129,
-129,
-129,
-129,
-129,
-129,
-129,
-129,
-129,
-129,
-129,
-129,
-129,
-129,
-129,
-129,
-129,
-129,
-129,
-129,
-129,
-129,
-129,
-129,
-129,
-129,
-129,
-129,
-129,
-129,
-129,
-129,
-129,
-129,
-129,
-129,
-129,
-129,
-129,
-129,
-129,
-129,
-129,
-129,
-129,
-129,
-129,
-129,
-129,
-129,
-129,
-129,
-129,
-129,
-129,
-129,
-129,
-129,
-129,
-129,
-129,
-129,
-129,
-129,
-129,
-129,
-129,
-129,
-129,
-129,
-129,
-129,
-129,
-129,
-129,
-129,
-129,
-129,
-129,
-129,
-129,
-129,
-129,
-129,
-129,
-129,
-129,
-129,
-129,
-129,
-129,
-129,
-129,
-129,
-129,
-129,
-129,
-129,
-129,
-129,
-129,
-129,
-129,
-129,
-129,
-129,
-129,
-129,
-129,
-129,
-129,
-129,
-129,
-129,
-129,
-129,
-129,
-129,
-129,
-129,
-129,
-129,
-129,
-129,
-129,
-129,
-129,
-129,
-129,
-129,
-129,
-129,
-129,
-129,
-129,
-129,
-129,
-129,
-129,
-129,
-129,
-129,
-129,
-129,
-129,
-129,
-129,
-129,
-129,
-129,
-129,
-129,
-129,
-129,
-129,
-129,
-129,
-129,
-129,
-129,
-129,
-129,
-129,
-129,
-129,
-129,
-129,
-129,
-129,
-129,
-129,
-129,
-129,
-129,
-129,
-129,
-129,
-129,
-129,
-129,
-129,
-129,
-129,
-129,
-129,
-129,
-129,
-129,
-129,
-129,
-129,
-129,
-129,
-129,
-129,
-129,
-129,
-129,
-129,
-129,
-129,
-129,
-129,
-129,
-129,
-129,
-129,
-129,
-129,
-129,
-129,
-129,
-129,
-129,
-129,
-129,
-129,
-129,
-129,
-129,
-129,
-129,
-129,
-129,
-129,
-129,
-129,
-129,
-129,
-129,
-129,
-129,
-129,
-129,
-129,
-129,
-129,
-129,
-129,
-129,
-129,
-129,
-129,
-129,
-129,
-129,
-129,
-129,
-129,
-129,
-129,
-129,
-129,
-129,
-129,
-129,
-129,
-129,
-129,
-129,
-129,
-129,
-129,
-129,
-129,
-129,
-129,
-129,
-129,
-129,
-129,
-129,
-129,
-129,
-129,
-129,
-129,
-129,
-129,
-129,
-129,
-129,
-129,
-129,
-129,
-129,
-129,
-129,
-129,
-129,
-129,
-129,
-129,
-129,
-129,
-129,
-129,
-129,
-129,
-129,
-129,
-129,
-129,
-129,
-129,
-129,
-129,
-129,
-129,
-129,
-129,
-129,
-129,
-129,
-129,
-129,
-129,
-129,
-129,
-129,
-129,
-129,
-129,
-129,
-129,
-129,
-129,
-129,
-129,
-129,
-129,
-129,
-129,
-129,
-129,
-129,
-129,
-129,
-129,
-129,
-129,
-129,
-129,
-129,
-129,
-129,
-129,
-129,
-129,
-129,
-129,
-129,
-129,
-129,
-129,
-129,
-129,
-129,
-129,
-129,
-129,
-129,
-129,
-129,
-129,
-129,
-129,
-129,
-129,
-129,
-129,
-129,
-129,
-129,
-129,
-129,
-129,
-129,
-129,
-129,
-129,
-129,
-129,
-129,
-129,
-129,
-129,
-129,
-129,
-129,
-128,
-129,
-129,
-129,
-129,
-128,
-129,
-129,
-129,
-129,
-125,
-129,
-128,
-128,
-129,
-129,
-129,
-129,
-127,
-128,
-128,
-128,
-129,
-129,
-129,
-127,
-126,
-128,
-129,
-125,
-120,
-129,
-125,
-123,
-122,
-121,
-121,
-116,
-121,
-93,
47,
126,
126,
126,
126,
126,
126,
126,
126,
126,
126,
126,
126,
126,
126,
126,
126,
126,
126,
126,
126,
126,
126,
126,
126,
126,
126,
126,
126,
126,
126,
126,
126,
126,
126,
126,
126,
126,
126,
126,
126,
126,
126,
126,
126,
126,
126,
126,
126,
126,
126,
126,
126,
126,
126,
126,
126,
126,
126,
126,
126,
126,
126,
126,
126,
126,
126,
126,
126,
126,
126,
126,
126,
126,
126,
126,
126,
126,
126,
126,
126,
126,
126,
126,
126,
126,
126,
126,
126,
126,
126,
126,
126,
126,
126,
126,
126,
126,
126,
126,
126,
126,
126,
126,
126,
126,
126,
126,
126,
126,
126,
126,
126,
126,
126,
126,
126,
126,
126,
126,
126,
126,
126,
126,
126,
126,
126,
126,
126,
126,
126,
126,
126,
126,
126,
126,
126,
126,
126,
126,
126,
126,
126,
126,
126,
126,
126,
126,
126,
126,
126,
126,
126,
126,
126,
126,
126,
126,
126,
126,
126,
126,
126,
126,
126,
126,
126,
126,
126,
126,
126,
126,
126,
126,
126,
126,
126,
126,
126,
126,
126,
126,
126,
126,
126,
126,
126,
126,
126,
126,
126,
126,
126,
126,
126,
126,
126,
126,
126,
126,
126,
126,
126,
126,
126,
126,
126,
126,
126,
126,
126,
126,
126,
126,
126,
126,
126,
126,
126,
126,
126,
126,
126,
126,
126,
126,
126,
126,
126,
126,
126,
126,
126,
126,
126,
126,
126,
126,
126,
126,
126,
126,
126,
126,
126,
126,
126,
126,
126,
126,
126,
126,
126,
126,
126,
126,
126,
126,
126,
126,
126,
126,
126,
126,
126,
126,
126,
126,
126,
126,
126,
126,
126,
126,
126,
126,
126,
126,
126,
126,
126,
126,
126,
126,
126,
126,
126,
126,
126,
126,
126,
126,
126,
126,
126,
126,
126,
126,
126,
126,
126,
126,
126,
126,
126,
126,
126,
126,
126,
126,
126,
126,
126,
126,
126,
126,
126,
126,
126,
126,
126,
126,
126,
126,
126,
126,
126,
126,
126,
126,
126,
126,
126,
126,
126,
126,
126,
126,
126,
126,
126,
126,
126,
126,
126,
126,
126,
126,
126,
126,
126,
126,
126,
126,
126,
126,
126,
126,
126,
126,
126,
126,
126,
126,
126,
126,
126,
126,
126,
126,
126,
126,
126,
126,
126,
126,
126,
126,
126,
126,
126,
126,
126,
126,
126,
126,
126,
126,
126,
126,
126,
126,
126,
126,
126,
126,
126,
126,
126,
126,
126,
126,
126,
126,
126,
126,
126,
126,
126,
126,
126,
126,
126,
126,
126,
126,
126,
126,
126,
126,
126,
126,
126,
126,
126,
126,
126,
126,
126,
126,
126,
126,
126,
126,
126,
126,
126,
126,
126,
126,
126,
126,
126,
126,
126,
126,
126,
126,
126,
126,
126,
126,
126,
122,
126,
126,
126,
126,
126,
124,
123,
125,
123,
123,
116,
117,
118,
121,
116,
118,
118,
115,
122,
113,
116,
118,
115,
112,
109,
110,
115,
114,
106,
111,
118,
111,
110,
111,
111,
106,
108,
107,
107,
104,
103,
107,
102,
105,
105,
103,
103,
100,
99,
94,
99,
102,
101,
98,
98,
102,
97,
95,
102,
98,
95,
95,
95,
95,
96,
92,
95,
93,
95,
93,
87,
91,
95,
93,
91,
90,
96,
91,
93,
89,
89,
91,
90,
89,
89,
88,
88,
86,
91,
90,
86,
89,
87,
88,
85,
78,
80,
86,
87,
86,
83,
84,
83,
90,
85,
81,
86,
82,
82,
80,
80,
83,
77,
84,
82,
81,
80,
74,
76,
85,
82,
81,
76,
78,
83,
78,
70,
76,
84,
78,
79,
78,
78,
78,
78,
83,
77,
78,
77,
74,
75,
74,
73,
75,
78,
76,
72,
74,
79,
77,
83,
76,
67,
75,
75,
78,
75,
59,
73,
73,
71,
72,
75,
77,
75,
75,
74,
74,
74,
74,
74,
71,
70,
71,
71,
75,
73,
72,
69,
69,
68,
75,
72,
70,
68,
71,
69,
72,
61,
70,
67,
69,
72,
67,
68,
69,
73,
72,
71,
69,
69,
67,
67,
65,
66,
70,
68,
69,
68,
67,
71,
69,
71,
70,
63,
65,
67,
70,
66,
53,
66,
64,
70,
67,
69,
70,
66,
67,
66,
71,
67,
67,
67,
67,
65,
67,
66,
69,
65,
66,
65,
66,
67,
72,
66,
64,
64,
67,
66,
72,
56,
64,
66,
63,
63,
71,
66,
66,
67,
69,
64,
64,
66,
66,
67,
64,
65,
61,
66,
67,
67,
67,
67,
69,
71,
65,
64,
70,
60,
64,
65,
51,
66,
65,
71,
65,
63,
67,
66,
66,
68,
63,
66,
66,
65,
67,
66,
68,
63,
68,
61,
63,
66,
66,
67,
70,
66,
67,
69,
65,
70,
63,
67,
70,
66,
69,
66,
63,
68,
66,
71,
65,
66,
66,
65,
67,
66,
70,
62,
63,
68,
70,
70,
67,
66,
71,
63,
65,
66,
69,
63,
68,
62,
71,
66,
68,
66,
66,
68,
66,
66,
75,
70,
66,
66,
67,
65,
66,
65,
72,
63,
70,
63,
67,
66,
69,
68,
63,
65,
71,
67,
65,
68,
67,
67,
64,
65,
66,
63,
65,
69,
71,
60,
62,
67,
69,
66,
69,
67,
66,
68,
71,
66,
67,
70,
70,
63,
67,
63,
71,
69,
64,
64,
68,
65,
67,
70,
71,
67,
70,
67,
69,
66,
55,
69,
67,
71,
68,
66,
67,
63,
67,
70,
65,
66,
70,
61,
67,
70,
66,
67,
72,
67,
66,
68,
70,
73,
68,
68,
65,
65,
70,
67,
66,
73,
65,
65,
67,
66,
66,
66,
69,
78,
68,
65,
71,
68,
67,
67,
70,
70,
67,
68,
67,
65,
68,
67,
74,
62,
64,
68,
66,
69,
69,
69,
64,
62,
67,
69,
66,
66,
66,
66,
66,
62,
58,
64,
53,
57,
-2,
-107,
-129,
-129,
-129,
-129,
-129,
-129,
-129,
-129,
-129,
-129,
-129,
-129,
-129,
-129,
-129,
-129,
-129,
-129,
-129,
-129,
-129,
-129,
-129,
-129,
-129,
-129,
-129,
-129,
-129,
-129,
-129,
-129,
-129,
-129,
-129,
-129,
-129,
-129,
-129,
-129,
-129,
-129,
-129,
-129,
-129,
-129,
-129,
-129,
-129,
-129,
-129,
-129,
-129,
-129,
-129,
-129,
-129,
-129,
-129,
-129,
-129,
-129,
-129,
-129,
-129,
-129,
-129,
-129,
-129,
-129,
-129,
-129,
-129,
-129,
-129,
-129,
-129,
-129,
-129,
-129,
-129,
-129,
-129,
-129,
-129,
-129,
-129,
-129,
-129,
-129,
-129,
-129,
-129,
-129,
-129,
-129,
-129,
-129,
-129,
-129,
-129,
-129,
-129,
-129,
-129,
-129,
-129,
-129,
-129,
-129,
-129,
-129,
-129,
-129,
-129,
-129,
-129,
-129,
-129,
-129,
-129,
-129,
-129,
-129,
-129,
-129,
-129,
-129,
-129,
-129,
-129,
-129,
-129,
-129,
-129,
-129,
-129,
-129,
-129,
-129,
-129,
-129,
-129,
-129,
-129,
-129,
-129,
-129,
-129,
-129,
-129,
-129,
-129,
-129,
-129,
-129,
-129,
-129,
-129,
-129,
-129,
-129,
-129,
-129,
-129,
-129,
-129,
-129,
-129,
-129,
-129,
-129,
-129,
-129,
-129,
-129,
-129,
-129,
-129,
-129,
-129,
-129,
-129,
-129,
-129,
-129,
-129,
-129,
-129,
-129,
-129,
-129,
-129,
-129,
-129,
-129,
-129,
-129,
-129,
-129,
-129,
-129,
-129,
-129,
-129,
-129,
-129,
-129,
-129,
-129,
-129,
-129,
-129,
-129,
-129,
-129,
-129,
-129,
-129,
-129,
-129,
-129,
-129,
-129,
-129,
-129,
-129,
-129,
-129,
-129,
-129,
-129,
-129,
-129,
-129,
-129,
-129,
-129,
-129,
-129,
-129,
-129,
-129,
-129,
-129,
-129,
-129,
-129,
-129,
-129,
-129,
-129,
-129,
-129,
-129,
-129,
-129,
-129,
-129,
-129,
-129,
-129,
-129,
-129,
-129,
-129,
-129,
-129,
-129,
-129,
-129,
-129,
-129,
-129,
-129,
-129,
-129,
-129,
-129,
-129,
-129,
-129,
-129,
-129,
-129,
-129,
-129,
-129,
-129,
-129,
-129,
-129,
-129,
-129,
-129,
-129,
-129,
-129,
-129,
-129,
-129,
-129,
-129,
-129,
-129,
-129,
-129,
-129,
-129,
-129,
-129,
-129,
-129,
-129,
-129,
-129,
-129,
-129,
-129,
-129,
-129,
-129,
-129,
-129,
-129,
-129,
-129,
-129,
-129,
-129,
-129,
-129,
-129,
-129,
-129,
-129,
-129,
-129,
-129,
-129,
-129,
-129,
-129,
-129,
-129,
-129,
-129,
-129,
-129,
-129,
-129,
-129,
-129,
-129,
-129,
-129,
-129,
-129,
-129,
-129,
-129,
-129,
-129,
-129,
-129,
-129,
-129,
-129,
-129,
-129,
-129,
-129,
-129,
-129,
-129,
-129,
-129,
-129,
-129,
-129,
-129,
-129,
-129,
-129,
-129,
-129,
-129,
-129,
-129,
-129,
-129,
-129,
-129,
-129,
-129,
-129,
-129,
-129,
-129,
-129,
-129,
-129,
-129,
-129,
-129,
-129,
-129,
-129,
-129,
-129,
-129,
-129,
-129,
-129,
-129,
-129,
-129,
-129,
-129,
-129,
-129,
-129,
-129,
-129,
-129,
-129,
-129,
-129,
-129,
-129,
-129,
-129,
-129,
-129,
-129,
-129,
-129,
-129,
-129,
-129,
-129,
-129,
-129,
-129,
-129,
-129,
-129,
-129,
-129,
-129,
-129,
-129,
-129,
-129,
-129,
-129,
-129,
-129,
-129,
-129,
-129,
-129,
-129,
-129,
-129,
-129,
-129,
-129,
-129,
-129,
-129,
-129,
-129,
-129,
-129,
-129,
-129,
-129,
-129,
-129,
-129,
-129,
-129,
-129,
-129,
-129,
-129,
-129,
-129,
-129,
-129,
-129,
-129,
-129,
-129,
-129,
-129,
-129,
-129,
-129,
-129,
-129,
-129,
-129,
-129,
-129,
-129,
-129,
-129,
-129,
-129,
-129,
-129,
-129,
-129,
-129,
-129,
-129,
-129,
-129,
-129,
-129,
-129,
-129,
-129,
-129,
-129,
-129,
-129,
-129,
-129,
-129,
-129,
-129,
-129,
-129,
-129,
-129,
-129,
-129,
-129,
-129,
-129,
-129,
-129,
-129,
-129,
-129,
-129,
-129,
-129,
-129,
-129,
-129,
-129,
-129,
-129,
-129,
-129,
-129,
-129,
-129,
-129,
-129,
-129,
-129,
-129,
-129,
-129,
-129,
-129,
-129,
-129,
-129,
-129,
-129,
-129,
-129,
-129,
-129,
-129,
-129,
-129,
-129,
-129,
-129,
-129,
-129,
-129,
-129,
-129,
-129,
-129,
-129,
-129,
-129,
-129,
-129,
-129,
-129,
-129,
-129,
-129,
-129,
-129,
-129,
-129,
-129,
-129,
-129,
-129,
-129,
-129,
-129,
-129,
-129,
-129,
-129,
-129,
-129,
-129,
-129,
-129,
-129,
-129,
-129,
-129,
-129,
-129,
-129,
-129,
-129,
-129,
-129,
-129,
-129,
-129,
-129,
-129,
-129,
-129,
-129,
-129,
-129,
-129,
-129,
-129,
-129,
-129,
-129,
-129,
-129,
-129,
-129,
-129,
-129,
-129,
-129,
-129,
-129,
-129,
-129,
-129,
-129,
-129,
-129,
-129,
-129,
-129,
-129,
-129,
-129,
-129,
-129,
-129,
-129,
-129,
-129,
-129,
-129,
-129,
-129,
-129,
-129,
-129,
-129,
-129,
-129,
-129,
-129,
-129,
-129,
-129,
-129,
-129,
-129,
-129,
-129,
-129,
-129,
-129,
-129,
-129,
-129,
-129,
-129,
-129,
-129,
-129,
-129,
-129,
-129,
-129,
-129,
-129,
-129,
-129,
-129,
-129,
-129,
-129,
-129,
-129,
-129,
-129,
-129,
-129,
-129,
-129,
-129,
-129,
-129,
-129,
-129,
-129,
-129,
-129,
-129,
-129,
-129,
-129,
-129,
-129,
-129,
-129,
-129,
-129,
-129,
-129,
-129,
-129,
-129,
-129,
-129,
-129,
-129,
-129,
-129,
-129,
-129,
-129,
-129,
-129,
-129,
-129,
-129,
-129,
-129,
-129,
-129,
-129,
-129,
-129,
-129,
-129,
-129,
-129,
-129,
-129,
-129,
-129,
-129,
-129,
-129,
-129,
-129,
-129,
-129,
-129,
-129,
-129,
-129,
-129,
-129,
-129,
-129,
-129,
-129,
-129,
-129,
-129,
-129,
-129,
-129,
-129,
-129,
-129,
-129,
-129,
-129,
-129,
-129,
-129,
-129,
-129,
-129,
-129,
-129,
-129,
-129,
-129,
-129,
-129,
-129,
-129,
-129,
-129,
-129,
-129,
-129,
-129,
-129,
-129,
-129,
-129,
-129,
-129,
-129,
-129,
-129,
-129,
-129,
-129,
-129,
-129,
-129,
-129,
-129,
-129,
-129,
-129,
-129,
-129,
-129,
-129,
-129,
-129,
-129,
-129,
-129,
-129,
-129,
-129,
-129,
-129,
-129,
-129,
-129,
-129,
-129,
-129,
-129,
-129,
-129,
-129,
-129,
-129,
-129,
-129,
-129,
-129,
-129,
-129,
-129,
-129,
-129,
-129,
-129,
-129,
-129,
-129,
-129,
-129,
-129,
-129,
-129,
-129,
-129,
-129,
-129,
-129,
-129,
-129,
-129,
-129,
-129,
-129,
-129,
-129,
-129,
-129,
-129,
-129,
-129,
-129,
-129,
-129,
-129,
-129,
-129,
-129,
-129,
-129,
-129,
-129,
-129,
-129,
-129,
-129,
-129,
-129,
-129,
-129,
-129,
-129,
-129,
-129,
-129,
-129,
-129,
-129,
-129,
-129,
-129,
-129,
-129,
-128,
-129,
-129,
-129,
-129,
-129,
-129,
-129,
-127,
-126,
-129,
-129,
-129,
-129,
-129,
-129,
-129,
-129,
-129,
-129,
-129,
-129,
-128,
-129,
-129,
-129,
-129,
-129,
-127,
-128,
-128,
-129,
-129,
-127,
-124,
-129,
-126,
-125,
-126,
-126,
-125,
-124,
-126,
-125,
-117,
-122,
-121,
-123,
-114,
-116,
-56,
43,
126,
126,
126,
126,
126,
126,
126,
126,
126,
126,
126,
126,
126,
126,
126,
126,
126,
126,
126,
126,
126,
126,
126,
126,
126,
126,
126,
126,
126,
126,
126,
126,
126,
126,
126,
126,
126,
126,
126,
126,
126,
126,
126,
126,
126,
126,
126,
126,
126,
126,
126,
126,
126,
126,
126,
126,
126,
126,
126,
126,
126,
126,
126,
126,
126,
126,
126,
126,
126,
126,
126,
126,
126,
126,
126,
126,
126,
126,
126,
126,
126,
126,
126,
126,
126,
126,
126,
126,
126,
126,
126,
126,
126,
126,
126,
126,
126,
126,
126,
126,
126,
126,
126,
126,
126,
126,
126,
126,
126,
126,
126,
126,
126,
126,
126,
126,
126,
126,
126,
126,
126,
126,
126,
126,
126,
126,
126,
126,
126,
126,
126,
126,
126,
126,
126,
126,
126,
126,
126,
126,
126,
126,
126,
126,
126,
126,
126,
126,
126,
126,
126,
126,
126,
126,
126,
126,
126,
126,
126,
126,
126,
126,
126,
126,
126,
126,
126,
126,
126,
126,
126,
126,
126,
126,
126,
126,
126,
126,
126,
126,
126,
126,
126,
126,
126,
126,
126,
126,
126,
126,
126,
126,
126,
126,
126,
126,
126,
126,
126,
126,
126,
126,
126,
126,
126,
126,
126,
126,
126,
126,
126,
126,
126,
126,
126,
126,
126,
126,
126,
126,
126,
126,
126,
126,
126,
126,
126,
126,
126,
126,
126,
126,
126,
126,
126,
126,
126,
126,
126,
126,
126,
126,
126,
126,
126,
126,
126,
126,
126,
126,
126,
126,
126,
126,
126,
126,
126,
126,
126,
126,
126,
126,
126,
126,
126,
126,
126,
126,
126,
126,
126,
126,
126,
126,
126,
126,
126,
126,
126,
126,
126,
126,
126,
126,
126,
126,
126,
126,
126,
126,
126,
126,
126,
126,
126,
126,
126,
126,
126,
126,
126,
126,
126,
126,
126,
126,
126,
126,
126,
126,
126,
126,
126,
126,
126,
126,
126,
126,
126,
126,
126,
126,
126,
126,
126,
126,
126,
126,
126,
126,
126,
126,
126,
126,
126,
126,
126,
126,
126,
126,
126,
126,
126,
126,
126,
126,
126,
126,
126,
126,
126,
126,
126,
126,
126,
126,
126,
126,
126,
126,
126,
126,
126,
126,
126,
126,
126,
126,
126,
126,
126,
126,
126,
126,
126,
126,
126,
126,
126,
