A0006CH1.CSV

Memory Length,4000,
Trigger Level,4.600E-01,
Source,CH1,
Vertical Units,V,
Vertical Scale,1.000E-01,
Vertical Position,4.000E-03,
Horizontal Units,s,
Horizontal Scale,1.000E-03,
Horizontal Position,-1.320E-03,
Horizontal Mode,Main,
Sampling Period,4.000E-06,
Firmware, V1.12,
Waveform Data,
4,
4,
-59,
-61,
-61,
-61,
-62,
-63,
-64,
-65,
-65,
-66,
-66,
-67,
-67,
-67,
-69,
-69,
-69,
-69,
-70,
-70,
-70,
-70,
-71,
-70,
-71,
-70,
-71,
-70,
-70,
-71,
-71,
-70,
-70,
-70,
-70,
-70,
-69,
-69,
-69,
-69,
-68,
-68,
-67,
-67,
-67,
-66,
-66,
-65,
-65,
-64,
-64,
-63,
-63,
-62,
-61,
-61,
-60,
-59,
-59,
-58,
-57,
-56,
-55,
-54,
-54,
-53,
-52,
-51,
-50,
-49,
-49,
-48,
-46,
-46,
-45,
-45,
-42,
-42,
-41,
-40,
-40,
-38,
-37,
-36,
-35,
-34,
-34,
-32,
-32,
-30,
-29,
-28,
-27,
-26,
-24,
-25,
-23,
-22,
-21,
-20,
-20,
-17,
-17,
-16,
-15,
-13,
-13,
-12,
-11,
-10,
-9,
-9,
-7,
-6,
-5,
-5,
-3,
-2,
-2,
-1,
-1,
1,
2,
2,
3,
4,
5,
6,
5,
7,
8,
9,
10,
11,
11,
11,
13,
14,
14,
14,
15,
15,
16,
17,
17,
18,
19,
19,
19,
20,
20,
22,
22,
22,
23,
23,
23,
24,
24,
25,
25,
26,
26,
26,
26,
27,
27,
28,
27,
27,
28,
28,
29,
28,
29,
29,
30,
29,
30,
30,
30,
30,
30,
31,
30,
31,
30,
30,
30,
30,
30,
30,
30,
30,
30,
30,
30,
30,
30,
30,
30,
29,
29,
29,
29,
29,
28,
28,
27,
27,
27,
28,
27,
26,
27,
26,
26,
25,
25,
25,
24,
24,
23,
23,
23,
23,
23,
22,
21,
22,
21,
20,
20,
20,
19,
19,
19,
19,
19,
17,
18,
17,
16,
16,
16,
15,
15,
15,
14,
13,
13,
14,
13,
13,
13,
11,
11,
10,
10,
10,
9,
9,
8,
8,
7,
8,
6,
6,
6,
6,
5,
5,
4,
5,
4,
3,
3,
2,
3,
2,
2,
2,
1,
1,
1,
0,
0,
-1,
0,
-1,
-1,
-2,
-2,
-3,
-3,
-2,
-3,
-3,
-3,
-4,
-4,
-4,
-5,
-5,
-5,
-5,
-5,
-6,
-6,
-6,
-6,
-7,
-6,
-7,
-7,
-7,
-7,
-8,
-9,
-9,
-9,
-9,
-9,
-9,
-9,
-9,
-9,
-9,
-10,
-9,
-9,
-10,
-9,
-9,
-10,
-9,
-10,
-9,
-10,
-10,
-9,
-10,
-10,
-10,
-10,
-9,
-10,
-10,
-10,
-10,
-10,
-10,
-10,
-9,
-10,
-10,
-10,
-10,
-10,
-10,
-9,
-9,
-9,
-9,
-10,
-9,
-10,
-10,
-9,
-9,
-9,
-9,
-9,
-9,
-9,
-9,
-8,
-8,
-8,
-7,
-7,
-7,
-7,
-7,
-7,
-7,
-7,
-7,
-6,
-6,
-6,
-6,
-6,
-6,
-6,
-6,
-6,
-5,
-5,
-5,
-5,
-5,
-5,
-5,
-5,
-4,
-4,
-4,
-4,
-3,
-3,
-3,
-2,
-3,
-3,
-2,
-2,
-2,
-2,
-2,
-1,
-2,
-2,
-1,
-2,
-1,
-1,
-1,
-1,
-1,
0,
-1,
0,
0,
1,
0,
0,
1,
1,
2,
1,
1,
1,
1,
2,
2,
2,
2,
2,
2,
2,
2,
3,
3,
3,
3,
3,
3,
3,
3,
3,
3,
3,
4,
4,
4,
5,
4,
5,
5,
4,
5,
5,
4,
5,
5,
5,
5,
5,
5,
5,
6,
5,
5,
5,
5,
6,
5,
5,
6,
6,
5,
5,
6,
6,
6,
5,
5,
6,
6,
5,
6,
6,
5,
6,
6,
6,
6,
6,
6,
6,
5,
6,
6,
6,
6,
5,
5,
6,
5,
5,
5,
6,
6,
6,
6,
5,
6,
5,
5,
5,
5,
5,
5,
5,
5,
6,
5,
5,
5,
5,
5,
5,
5,
5,
5,
4,
4,
4,
5,
4,
4,
4,
4,
4,
3,
4,
4,
4,
3,
3,
3,
3,
3,
3,
3,
3,
3,
3,
3,
3,
3,
3,
3,
2,
2,
3,
3,
3,
2,
2,
2,
2,
2,
2,
2,
2,
2,
2,
2,
2,
2,
2,
1,
2,
2,
1,
2,
1,
1,
1,
0,
1,
1,
1,
1,
1,
1,
1,
1,
1,
1,
1,
1,
0,
0,
0,
0,
-1,
0,
1,
1,
0,
-1,
0,
0,
-1,
0,
0,
0,
-1,
-1,
0,
0,
0,
0,
-1,
-1,
0,
-1,
-1,
-1,
0,
-1,
0,
0,
-1,
-1,
-1,
0,
0,
-1,
-1,
0,
-1,
-1,
-1,
-1,
0,
-1,
-1,
-1,
0,
0,
0,
-1,
-1,
-1,
-1,
-1,
-1,
0,
-1,
-1,
-1,
-1,
-1,
-1,
-1,
-1,
0,
-1,
0,
-1,
-1,
-1,
-1,
-1,
-1,
0,
-1,
-1,
-1,
-1,
0,
-1,
0,
0,
0,
0,
-1,
0,
0,
-1,
-1,
0,
0,
-1,
0,
0,
0,
0,
0,
0,
0,
0,
0,
0,
1,
0,
1,
0,
1,
1,
1,
1,
0,
1,
1,
1,
1,
1,
1,
1,
1,
1,
1,
1,
1,
1,
2,
1,
1,
1,
1,
1,
1,
1,
1,
2,
1,
1,
1,
2,
1,
1,
2,
2,
2,
1,
2,
2,
1,
1,
2,
2,
2,
2,
2,
2,
1,
1,
1,
1,
2,
2,
1,
2,
1,
2,
2,
2,
2,
2,
2,
2,
2,
1,
2,
2,
2,
2,
1,
2,
2,
2,
2,
2,
2,
2,
2,
2,
2,
2,
2,
2,
2,
2,
2,
2,
2,
2,
2,
2,
2,
2,
2,
2,
2,
2,
2,
2,
3,
2,
2,
2,
2,
2,
2,
2,
2,
2,
2,
2,
2,
2,
2,
2,
2,
1,
1,
2,
2,
3,
2,
2,
2,
2,
3,
2,
2,
2,
2,
1,
2,
2,
2,
2,
2,
2,
0,
2,
2,
2,
2,
2,
2,
2,
2,
2,
2,
2,
2,
2,
2,
1,
2,
2,
2,
2,
2,
2,
2,
1,
2,
1,
2,
2,
2,
1,
1,
2,
2,
1,
2,
1,
2,
1,
2,
2,
1,
2,
1,
2,
1,
1,
1,
1,
1,
2,
1,
1,
2,
2,
1,
1,
1,
2,
1,
1,
1,
1,
1,
1,
1,
1,
1,
1,
2,
1,
2,
0,
1,
2,
1,
2,
1,
1,
2,
1,
2,
2,
1,
2,
2,
1,
1,
1,
1,
1,
1,
1,
1,
0,
2,
2,
1,
2,
1,
0,
1,
1,
1,
1,
1,
1,
1,
1,
2,
1,
2,
0,
1,
1,
1,
1,
1,
1,
1,
1,
2,
1,
1,
1,
1,
1,
1,
1,
1,
1,
1,
1,
1,
2,
1,
1,
0,
1,
1,
1,
1,
1,
1,
1,
1,
1,
1,
1,
0,
0,
2,
2,
1,
2,
2,
0,
1,
1,
1,
0,
1,
1,
1,
1,
1,
0,
1,
1,
1,
1,
1,
1,
1,
1,
1,
1,
2,
1,
2,
1,
1,
0,
1,
1,
1,
1,
2,
1,
1,
1,
1,
1,
1,
2,
1,
1,
1,
1,
1,
1,
1,
1,
1,
1,
1,
1,
1,
0,
1,
1,
1,
2,
1,
1,
1,
2,
2,
1,
1,
1,
1,
1,
1,
1,
2,
1,
1,
1,
1,
2,
2,
1,
1,
1,
1,
1,
1,
2,
2,
1,
2,
2,
2,
1,
2,
1,
2,
1,
1,
1,
1,
2,
1,
1,
1,
1,
1,
1,
1,
2,
2,
1,
1,
2,
2,
2,
2,
2,
2,
2,
1,
2,
2,
2,
2,
1,
1,
1,
2,
2,
1,
2,
2,
2,
2,
2,
2,
1,
1,
1,
1,
2,
2,
2,
1,
1,
1,
2,
1,
2,
2,
2,
1,
2,
1,
2,
1,
2,
1,
2,
2,
0,
1,
1,
1,
2,
1,
2,
5,
6,
8,
11,
13,
15,
17,
19,
21,
22,
25,
26,
28,
30,
32,
33,
35,
37,
38,
39,
42,
43,
43,
46,
47,
48,
49,
50,
51,
53,
54,
55,
57,
57,
59,
59,
61,
61,
62,
63,
64,
64,
66,
66,
66,
68,
68,
68,
69,
70,
70,
70,
70,
71,
72,
72,
72,
72,
73,
73,
73,
73,
74,
73,
73,
73,
73,
73,
72,
73,
72,
72,
72,
72,
71,
71,
70,
71,
70,
70,
69,
68,
68,
68,
67,
67,
66,
66,
65,
65,
64,
63,
63,
62,
61,
61,
59,
59,
58,
57,
57,
55,
55,
54,
53,
52,
51,
50,
50,
49,
47,
47,
45,
45,
44,
42,
43,
41,
40,
39,
38,
37,
36,
35,
34,
33,
32,
31,
30,
29,
28,
27,
26,
25,
24,
23,
22,
21,
19,
19,
18,
17,
16,
15,
15,
13,
13,
11,
10,
9,
9,
7,
6,
6,
5,
3,
3,
3,
2,
0,
-1,
-1,
-2,
-2,
-4,
-5,
-5,
-6,
-6,
-7,
-9,
-9,
-9,
-11,
-11,
-12,
-13,
-13,
-13,
-14,
-15,
-16,
-17,
-17,
-17,
-18,
-18,
-19,
-19,
-20,
-20,
-20,
-21,
-21,
-22,
-22,
-22,
-23,
-23,
-24,
-24,
-24,
-25,
-25,
-25,
-26,
-25,
-26,
-26,
-25,
-27,
-27,
-27,
-26,
-27,
-27,
-27,
-27,
-28,
-27,
-27,
-27,
-28,
-28,
-28,
-27,
-28,
-28,
-28,
-28,
-28,
-28,
-27,
-27,
-27,
-26,
-27,
-26,
-26,
-26,
-27,
-26,
-25,
-25,
-25,
-26,
-26,
-25,
-25,
-24,
-23,
-24,
-24,
-23,
-23,
-22,
-22,
-22,
-21,
-21,
-21,
-21,
-21,
-20,
-20,
-21,
-19,
-18,
-19,
-18,
-17,
-17,
-17,
-16,
-16,
-16,
-14,
-14,
-14,
-14,
-14,
-14,
-13,
-13,
-12,
-11,
-11,
-11,
-10,
-10,
-10,
-9,
-9,
-9,
-9,
-8,
-7,
-7,
-6,
-6,
-6,
-5,
-5,
-4,
-4,
-4,
-4,
-3,
-2,
-2,
-2,
-1,
-1,
-1,
0,
0,
0,
1,
1,
2,
2,
2,
2,
3,
3,
3,
5,
4,
4,
4,
5,
5,
5,
7,
6,
6,
7,
6,
7,
7,
7,
8,
7,
7,
9,
8,
8,
9,
10,
10,
10,
10,
9,
10,
10,
10,
10,
11,
11,
11,
11,
11,
11,
11,
12,
12,
11,
11,
12,
12,
13,
12,
12,
13,
12,
11,
12,
13,
12,
12,
13,
12,
12,
12,
12,
12,
12,
13,
13,
12,
13,
12,
12,
12,
12,
13,
12,
11,
12,
12,
12,
11,
12,
12,
11,
11,
11,
11,
11,
11,
11,
11,
10,
11,
11,
10,
10,
11,
10,
10,
10,
10,
9,
9,
10,
10,
9,
9,
9,
7,
9,
8,
8,
7,
7,
7,
8,
7,
7,
7,
6,
6,
6,
6,
6,
6,
6,
6,
6,
6,
5,
5,
5,
5,
5,
5,
4,
3,
3,
3,
3,
3,
3,
3,
3,
3,
3,
2,
2,
2,
2,
2,
2,
2,
2,
1,
2,
1,
1,
1,
1,
0,
0,
0,
0,
-1,
0,
-1,
-1,
-1,
-1,
-1,
-1,
-1,
-1,
-1,
-1,
-1,
-2,
-2,
-1,
-1,
-2,
-2,
-2,
-2,
-2,
-2,
-1,
-2,
-2,
-3,
-2,
-2,
-3,
-3,
-3,
-3,
-3,
-2,
-3,
-2,
-3,
-3,
-3,
-3,
-3,
-3,
-3,
-3,
-3,
-3,
-4,
-3,
-4,
-3,
-3,
-3,
-3,
-3,
-3,
-3,
-3,
-3,
-3,
-3,
-4,
-3,
-3,
-4,
-3,
-3,
-3,
-3,
-3,
-3,
-4,
-3,
-3,
-3,
-3,
-3,
-2,
-3,
-3,
-3,
-2,
-2,
-2,
-2,
-3,
-3,
-3,
-2,
-2,
-3,
-2,
-3,
-3,
-2,
-2,
-3,
-2,
-2,
-2,
-2,
-2,
-1,
-2,
-2,
-1,
-2,
-2,
-2,
-2,
-1,
-2,
-1,
-1,
-1,
-1,
-1,
-1,
-1,
-1,
-1,
-1,
-1,
-1,
-1,
-1,
-1,
0,
-1,
0,
0,
0,
0,
-1,
1,
-1,
1,
1,
1,
0,
0,
1,
1,
0,
0,
1,
0,
0,
2,
1,
1,
2,
1,
1,
0,
1,
1,
2,
2,
1,
2,
1,
1,
2,
1,
2,
2,
2,
2,
2,
2,
2,
2,
2,
2,
1,
2,
2,
2,
2,
2,
2,
2,
2,
2,
2,
3,
2,
2,
2,
2,
2,
2,
2,
2,
3,
3,
2,
3,
3,
2,
2,
3,
3,
2,
2,
3,
3,
3,
3,
3,
3,
3,
3,
2,
3,
2,
3,
3,
3,
3,
2,
3,
3,
3,
3,
3,
2,
3,
3,
2,
3,
3,
3,
3,
3,
2,
3,
3,
2,
3,
2,
2,
2,
3,
2,
2,
2,
3,
2,
3,
2,
2,
3,
2,
3,
2,
2,
2,
2,
3,
2,
2,
2,
2,
2,
2,
2,
2,
2,
2,
2,
2,
2,
2,
2,
2,
2,
2,
2,
2,
2,
2,
2,
2,
1,
2,
1,
2,
2,
2,
1,
2,
1,
1,
2,
2,
2,
1,
1,
1,
1,
2,
1,
2,
2,
2,
1,
1,
1,
1,
1,
1,
1,
1,
2,
1,
1,
1,
1,
1,
1,
1,
1,
1,
1,
1,
0,
1,
1,
0,
1,
1,
0,
1,
0,
1,
1,
0,
1,
1,
1,
1,
1,
1,
0,
1,
1,
1,
0,
1,
0,
0,
0,
0,
0,
0,
0,
0,
0,
1,
0,
0,
1,
0,
0,
1,
0,
0,
0,
0,
0,
0,
0,
0,
0,
1,
1,
0,
1,
0,
0,
0,
2,
0,
0,
0,
1,
1,
0,
1,
0,
1,
0,
0,
0,
1,
0,
1,
0,
1,
1,
0,
1,
0,
2,
0,
1,
1,
0,
0,
1,
1,
1,
1,
1,
1,
1,
1,
1,
0,
1,
0,
0,
2,
1,
1,
1,
1,
1,
0,
2,
0,
1,
1,
1,
1,
1,
1,
1,
1,
0,
1,
2,
1,
1,
1,
2,
1,
1,
1,
1,
0,
1,
2,
1,
2,
1,
1,
1,
2,
1,
1,
1,
1,
1,
1,
1,
2,
1,
1,
1,
2,
1,
1,
2,
1,
1,
2,
1,
1,
1,
2,
1,
1,
1,
1,
1,
1,
2,
1,
2,
1,
1,
1,
1,
1,
1,
1,
0,
2,
1,
2,
1,
1,
2,
1,
2,
1,
2,
2,
1,
2,
0,
2,
1,
2,
2,
1,
2,
2,
2,
1,
1,
1,
2,
1,
1,
1,
2,
2,
2,
2,
2,
2,
1,
2,
2,
1,
2,
2,
2,
2,
2,
1,
1,
1,
2,
2,
1,
2,
2,
2,
2,
2,
2,
2,
2,
2,
2,
2,
1,
2,
2,
1,
2,
2,
2,
1,
1,
2,
1,
1,
1,
2,
2,
2,
1,
2,
1,
2,
2,
1,
2,
2,
1,
1,
1,
2,
1,
1,
2,
1,
0,
1,
1,
1,
1,
2,
2,
1,
2,
1,
2,
2,
1,
1,
1,
1,
2,
1,
2,
2,
1,
1,
1,
1,
1,
2,
1,
1,
2,
2,
1,
1,
2,
1,
1,
0,
2,
0,
1,
1,
1,
1,
1,
1,
1,
2,
1,
1,
1,
1,
2,
1,
1,
1,
1,
1,
1,
1,
1,
1,
2,
1,
1,
1,
2,
1,
1,
1,
1,
1,
1,
-1,
-3,
-5,
-7,
-9,
-10,
-13,
-15,
-17,
-19,
-21,
-23,
-25,
-26,
-29,
-30,
-32,
-34,
-35,
-37,
-39,
-39,
-41,
-43,
-44,
-45,
-46,
-47,
-49,
-51,
-51,
-53,
-53,
-54,
-56,
-57,
-58,
-59,
-59,
-60,
-62,
-62,
-63,
-64,
-64,
-65,
-66,
-66,
-67,
-66,
-67,
-68,
-67,
-69,
-69,
-69,
-69,
-70,
-70,
-70,
-70,
-70,
-71,
-70,
-70,
-71,
-71,
-71,
-70,
-70,
-70,
-70,
-70,
-70,
-70,
-69,
-69,
-68,
-69,
-68,
-67,
-67,
-66,
-65,
-65,
-65,
-64,
-64,
-63,
-63,
-62,
-61,
-61,
-60,
-59,
-59,
-58,
-57,
-56,
-55,
-54,
-54,
-53,
-52,
-51,
-50,
-49,
-49,
-47,
-47,
-46,
-45,
-44,
-44,
-43,
-41,
-41,
-39,
-38,
-38,
-37,
-35,
-34,
-34,
-33,
-31,
-30,
-29,
-29,
-28,
-26,
-25,
-24,
-23,
-22,
-21,
-20,
-19,
-18,
-18,
-16,
-15,
-15,
-13,
-12,
-11,
-11,
-9,
-9,
-8,
-7,
-6,
-5,
-4,
-3,
-2,
-1,
0,
0,
2,
3,
3,
3,
5,
6,
7,
7,
8,
8,
10,
10,
11,
12,
12,
14,
14,
14,
15,
15,
16,
17,
17,
18,
19,
19,
20,
20,
21,
21,
21,
22,
23,
23,
23,
25,
25,
25,
25,
25,
26,
26,
27,
26,
27,
27,
27,
28,
28,
28,
28,
29,
29,
29,
30,
31,
30,
30,
30,
30,
30,
30,
31,
30,
30,
30,
30,
30,
31,
30,
29,
31,
30,
30,
29,
28,
29,
29,
29,
29,
29,
28,
28,
28,
29,
28,
27,
27,
27,
27,
27,
27,
26,
26,
26,
26,
25,
25,
24,
25,
24,
23,
23,
23,
23,
22,
22,
21,
21,
21,
21,
20,
19,
19,
19,
18,
18,
18,
18,
18,
17,
16,
15,
15,
15,
14,
15,
14,
14,
13,
13,
13,
13,
11,
11,
10,
10,
9,
9,
10,
8,
9,
8,
7,
7,
7,
6,
6,
6,
5,
5,
4,
4,
3,
3,
3,
2,
2,
2,
1,
1,
1,
0,
0,
0,
-1,
-1,
-1,
-1,
-2,
-2,
-2,
-2,
-3,
-3,
-3,
-4,
-3,
-5,
-5,
-4,
-5,
-5,
-5,
-5,
-6,
-6,
-6,
-6,
-6,
-7,
-8,
-7,
-7,
-7,
-8,
-8,
-7,
-9,
-9,
-9,
-9,
-9,
-9,
-8,
-9,
-9,
-10,
-9,
-10,
-10,
-10,
-9,
-10,
-11,
-10,
-9,
-9,
-10,
-10,
-10,
-10,
-9,
-10,
-10,
-10,
-10,
-10,
-10,
-10,
-10,
-10,
-11,
-10,
-10,
-10,
-9,
-10,
-10,
-10,
-10,
-10,
-9,
-9,
-10,
-9,
-9,
-9,
-9,
-9,
-9,
-9,
-9,
-8,
-9,
-9,
-9,
-8,
-8,
-9,
-8,
-7,
-8,
-7,
-7,
-7,
-6,
-6,
-7,
-6,
-6,
-6,
-7,
-5,
-5,
-5,
-5,
-5,
-5,
-5,
-5,
-5,
-5,
-4,
-4,
-3,
-4,
-4,
-3,
-3,
-3,
-3,
-3,
-3,
-2,
-2,
-2,
-2,
-1,
-1,
-1,
-2,
-1,
-1,
-2,
-1,
-1,
-1,
0,
0,
0,
-1,
0,
1,
2,
1,
0,
2,
1,
1,
2,
2,
1,
2,
1,
2,
2,
2,
2,
2,
3,
3,
3,
3,
2,
3,
3,
3,
3,
3,
3,
3,
3,
5,
4,
5,
3,
5,
5,
5,
5,
5,
5,
3,
4,
5,
5,
5,
5,
5,
5,
6,
5,
5,
5,
6,
5,
5,
5,
5,
6,
6,
6,
6,
6,
6,
6,
6,
6,
6,
6,
6,
5,
6,
6,
5,
5,
6,
5,
6,
6,
6,
6,
6,
6,
6,
5,
6,
6,
6,
5,
6,
5,
6,
5,
5,
6,
5,
5,
5,
5,
5,
5,
5,
5,
5,
5,
5,
5,
4,
5,
5,
4,
5,
5,
5,
5,
4,
4,
4,
3,
4,
3,
3,
4,
4,
4,
4,
3,
3,
3,
3,
2,
4,
3,
3,
3,
2,
3,
3,
4,
3,
2,
3,
3,
2,
2,
3,
2,
3,
2,
2,
3,
2,
2,
2,
2,
2,
2,
2,
2,
2,
1,
1,
2,
1,
2,
1,
1,
1,
1,
0,
0,
1,
1,
0,
1,
1,
1,
0,
1,
0,
0,
1,
0,
0,
0,
0,
0,
0,
0,
0,
0,
0,
0,
0,
-1,
-1,
0,
-1,
0,
0,
0,
-1,
0,
1,
-1,
0,
0,
-1,
-1,
-1,
-1,
-1,
-1,
-1,
0,
-1,
-1,
0,
-1,
0,
-1,
0,
-1,
-1,
-1,
-1,
0,
-1,
-1,
0,
0,
-1,
0,
0,
-1,
-1,
-1,
-1,
-1,
-1,
-1,
-1,
-1,
-1,
-1,
-1,
-1,
-1,
0,
-1,
-1,
-1,
0,
-1,
-1,
-1,
0,
0,
-1,
-1,
-1,
-1,
-1,
0,
-1,
-1,
-1,
-1,
-1,
-1,
0,
-1,
-1,
-1,
-1,
0,
0,
0,
0,
0,
0,
0,
0,
0,
0,
0,
0,
-1,
0,
0,
0,
1,
0,
0,
1,
0,
0,
2,
0,
1,
0,
1,
1,
1,
1,
1,
1,
1,
1,
1,
2,
0,
1,
1,
1,
1,
1,
1,
1,
1,
0,
1,
1,
1,
2,
1,
1,
2,
1,
2,
2,
1,
2,
1,
2,
1,
1,
2,
2,
2,
2,
2,
2,
2,
1,
2,
1,
2,
2,
2,
2,
2,
2,
2,
2,
2,
2,
2,
2,
2,
2,
2,
1,
2,
2,
0,
2,
1,
2,
2,
2,
2,
2,
1,
1,
2,
2,
2,
2,
2,
2,
1,
2,
2,
2,
2,
2,
1,
2,
2,
2,
3,
2,
2,
2,
2,
2,
2,
1,
2,
2,
2,
3,
2,
2,
2,
2,
1,
2,
2,
2,
1,
2,
2,
2,
2,
1,
2,
2,
2,
1,
2,
2,
1,
2,
2,
2,
2,
2,
1,
2,
2,
2,
3,
1,
2,
1,
1,
2,
2,
2,
2,
2,
1,
2,
2,
2,
2,
2,
1,
1,
1,
1,
2,
2,
1,
2,
2,
2,
2,
2,
2,
2,
1,
2,
1,
1,
2,
2,
1,
1,
1,
1,
1,
2,
2,
2,
1,
2,
1,
1,
1,
2,
1,
1,
1,
2,
1,
2,
1,
0,
1,
2,
1,
1,
1,
1,
1,
0,
0,
1,
2,
1,
1,
2,
1,
1,
1,
1,
1,
2,
1,
1,
1,
0,
1,
2,
2,
1,
2,
1,
1,
1,
1,
1,
1,
1,
1,
1,
1,
2,
1,
1,
1,
1,
1,
1,
1,
1,
1,
1,
1,
0,
1,
1,
1,
1,
2,
1,
1,
1,
1,
1,
0,
1,
1,
1,
0,
1,
1,
2,
1,
0,
1,
1,
1,
1,
1,
1,
0,
1,
0,
1,
1,
1,
1,
0,
1,
1,
1,
1,
1,
1,
1,
1,
1,
1,
2,
1,
1,
1,
1,
1,
1,
1,
1,
2,
1,
1,
1,
1,
1,
1,
2,
1,
1,
1,
2,
1,
1,
1,
1,
2,
1,
0,
2,
1,
1,
1,
1,
1,
1,
2,
1,
1,
1,
2,
2,
2,
1,
2,
2,
1,
1,
1,
1,
1,
2,
1,
1,
2,
2,
1,
1,
1,
1,
1,
1,
1,
1,
2,
2,
1,
1,
2,
2,
2,
1,
1,
2,
1,
1,
2,
1,
2,
2,
2,
2,
1,
1,
2,
2,
2,
1,
1,
2,
1,
1,
1,
1,
2,
1,
2,
1,
1,
2,
1,
1,
2,
1,
1,
1,
1,
1,
1,
1,
2,
2,
1,
2,
1,
2,
2,
2,
1,
1,
2,
2,
2,
1,
2,
0,
1,
1,
1,
2,
1,
2,
1,
1,
2,
1,
2,
1,
2,
1,
1,
2,
2,
1,
2,
0,
1,
2,
2,
2,
1,
2,
1,
2,
1,
2,
2,
2,
3,
7,
8,
10,
12,
14,
17,
19,
21,
23,
24,
26,
28,
30,
32,
33,
34,
37,
38,
39,
42,
43,
44,
46,
47,
48,
49,
51,
52,
52,
54,
55,
57,
58,
59,
59,
61,
62,
63,
63,
63,
64,
65,
66,
67,
67,
68,
69,
69,
70,
70,
70,
70,
71,
72,
70,
72,
72,
72,
72,
73,
73,
73,
73,
73,
73,
73,
74,
72,
73,
72,
72,
72,
72,
71,
71,
71,
70,
70,
70,
69,
69,
69,
67,
67,
67,
66,
65,
65,
65,
63,
63,
62,
62,
61,
61,
59,
59,
58,
57,
56,
55,
55,
54,
53,
52,
51,
51,
49,
49,
47,
47,
46,
45,
43,
43,
42,
41,
39,
39,
38,
37,
35,
35,
34,
33,
31,
31,
31,
29,
27,
27,
26,
25,
23,
22,
22,
22,
20,
19,
18,
17,
16,
15,
14,
13,
13,
11,
11,
10,
8,
8,
7,
6,
5,
4,
3,
2,
2,
0,
1,
-1,
-2,
-3,
-4,
-4,
-5,
-6,
-6,
-7,
-8,
-9,
-10,
-10,
-11,
-12,
-13,
-13,
-14,
-14,
-14,
-14,
-16,
-16,
-18,
-17,
-18,
-18,
-19,
-19,
-20,
-21,
-21,
-21,
-21,
-22,
-22,
-23,
-23,
-23,
-24,
-24,
-24,
-25,
-25,
-26,
-26,
-26,
-26,
-26,
-27,
-27,
-27,
-27,
-27,
-27,
-27,
-27,
-28,
-28,
-28,
-27,
-28,
-27,
-28,
-28,
-28,
-28,
-28,
-28,
-27,
-28,
-27,
-27,
-27,
-27,
-27,
-26,
-26,
-27,
-27,
-26,
-26,
-25,
-25,
-25,
-24,
-25,
-25,
-24,
-23,
-23,
-22,
-23,
-23,
-22,
-22,
-22,
-22,
-21,
-21,
-20,
-20,
-20,
-20,
-19,
-18,
-19,
-18,
-17,
-17,
-17,
-17,
-17,
-16,
-15,
-15,
-15,
-14,
-14,
-14,
-13,
-13,
-12,
-12,
-12,
-11,
-11,
-10,
-10,
-10,
-9,
-9,
-9,
-9,
-7,
-7,
-6,
-6,
-6,
-5,
-5,
-5,
-4,
-3,
-4,
-3,
-2,
-2,
-2,
-2,
-2,
-1,
0,
-1,
0,
0,
1,
2,
1,
2,
2,
3,
3,
3,
3,
3,
3,
4,
5,
5,
6,
6,
5,
6,
6,
6,
7,
7,
7,
7,
7,
8,
8,
9,
8,
9,
10,
10,
9,
9,
10,
10,
11,
11,
11,
10,
11,
11,
11,
11,
10,
11,
11,
12,
12,
13,
11,
12,
12,
12,
12,
11,
12,
13,
12,
12,
12,
13,
13,
13,
13,
13,
12,
13,
12,
13,
13,
13,
13,
12,
13,
12,
12,
12,
13,
12,
12,
12,
12,
12,
13,
11,
11,
11,
12,
12,
11,
11,
11,
11,
11,
11,
11,
11,
10,
11,
11,
10,
10,
10,
11,
10,
10,
10,
8,
9,
9,
8,
9,
8,
8,
9,
8,
8,
7,
8,
8,
7,
7,
6,
6,
6,
6,
6,
6,
6,
6,
5,
6,
6,
5,
5,
5,
4,
4,
