A0003CH1.CSV

Memory Length,4000,
Trigger Level,4.600E-01,
Source,CH1,
Vertical Units,V,
Vertical Scale,2.000E-01,
Vertical Position,9.600E-02,
Horizontal Units,s,
Horizontal Scale,1.000E-03,
Horizontal Position,-1.320E-03,
Horizontal Mode,Main,
Sampling Period,4.000E-06,
Firmware, V1.12,
Waveform Data,
47,
47,
46,
47,
47,
47,
47,
47,
47,
47,
47,
47,
47,
47,
47,
47,
46,
47,
46,
47,
47,
47,
47,
47,
46,
46,
47,
47,
47,
47,
47,
47,
47,
47,
47,
47,
47,
47,
47,
46,
46,
46,
47,
47,
46,
47,
47,
47,
46,
47,
47,
46,
47,
46,
47,
47,
47,
47,
46,
47,
47,
46,
47,
47,
46,
46,
47,
47,
47,
46,
47,
47,
46,
46,
46,
47,
47,
47,
46,
47,
46,
47,
47,
47,
47,
46,
47,
47,
47,
47,
47,
47,
48,
47,
46,
46,
46,
47,
47,
47,
46,
46,
46,
47,
47,
47,
46,
46,
47,
47,
47,
47,
47,
47,
47,
47,
47,
46,
47,
46,
47,
46,
47,
47,
47,
47,
47,
47,
46,
46,
46,
46,
46,
46,
47,
47,
46,
47,
46,
47,
46,
47,
46,
47,
47,
47,
47,
47,
46,
47,
46,
47,
47,
47,
46,
46,
46,
47,
47,
46,
46,
46,
47,
47,
47,
47,
47,
47,
47,
47,
46,
47,
47,
47,
47,
46,
47,
47,
46,
47,
46,
47,
47,
47,
47,
47,
47,
47,
47,
47,
47,
47,
47,
47,
47,
47,
47,
46,
46,
47,
47,
46,
47,
47,
47,
47,
47,
47,
47,
47,
47,
46,
47,
47,
47,
47,
46,
47,
47,
46,
46,
46,
47,
46,
47,
47,
47,
47,
47,
47,
46,
47,
46,
47,
47,
46,
46,
47,
47,
47,
47,
46,
47,
47,
47,
47,
47,
47,
46,
47,
47,
47,
47,
47,
47,
47,
47,
47,
47,
47,
47,
47,
47,
47,
47,
47,
47,
47,
46,
46,
47,
47,
46,
46,
46,
47,
46,
47,
46,
47,
46,
47,
47,
47,
47,
46,
47,
46,
47,
47,
47,
46,
47,
47,
47,
47,
47,
47,
47,
47,
47,
47,
47,
47,
47,
46,
47,
47,
47,
47,
47,
47,
47,
46,
47,
47,
47,
47,
46,
47,
47,
47,
47,
47,
47,
46,
47,
47,
46,
47,
46,
47,
47,
46,
47,
46,
47,
47,
46,
47,
47,
47,
47,
46,
46,
46,
46,
46,
47,
47,
47,
46,
47,
46,
47,
47,
47,
47,
47,
46,
46,
47,
46,
47,
47,
47,
47,
47,
46,
47,
47,
46,
47,
46,
47,
47,
47,
46,
47,
47,
47,
47,
47,
47,
47,
47,
47,
46,
46,
47,
46,
46,
47,
47,
47,
46,
47,
47,
47,
47,
47,
47,
46,
47,
47,
46,
46,
47,
46,
47,
47,
47,
47,
47,
46,
47,
46,
46,
45,
43,
41,
40,
39,
37,
35,
33,
32,
31,
29,
28,
26,
25,
23,
22,
21,
20,
18,
17,
15,
15,
13,
12,
11,
10,
8,
7,
6,
5,
4,
2,
2,
1,
0,
-1,
-2,
-4,
-5,
-6,
-6,
-8,
-8,
-9,
-10,
-11,
-12,
-12,
-13,
-13,
-15,
-16,
-17,
-18,
-18,
-20,
-20,
-21,
-21,
-22,
-22,
-24,
-24,
-25,
-25,
-26,
-27,
-28,
-28,
-28,
-29,
-30,
-30,
-31,
-32,
-32,
-32,
-33,
-33,
-34,
-35,
-36,
-36,
-37,
-36,
-37,
-37,
-39,
-40,
-40,
-40,
-40,
-41,
-41,
-42,
-42,
-43,
-43,
-44,
-44,
-44,
-45,
-45,
-45,
-45,
-46,
-46,
-47,
-47,
-48,
-48,
-48,
-49,
-48,
-49,
-49,
-50,
-50,
-51,
-50,
-50,
-51,
-52,
-52,
-52,
-53,
-53,
-53,
-53,
-53,
-53,
-54,
-54,
-54,
-55,
-56,
-56,
-56,
-56,
-56,
-57,
-56,
-56,
-57,
-57,
-57,
-57,
-58,
-58,
-58,
-58,
-59,
-58,
-60,
-59,
-59,
-59,
-60,
-60,
-60,
-60,
-60,
-60,
-61,
-61,
-61,
-61,
-61,
-61,
-62,
-61,
-62,
-63,
-62,
-62,
-63,
-63,
-63,
-63,
-63,
-63,
-63,
-64,
-63,
-64,
-64,
-64,
-64,
-65,
-64,
-64,
-65,
-65,
-64,
-65,
-65,
-65,
-65,
-65,
-65,
-65,
-65,
-65,
-65,
-65,
-66,
-65,
-65,
-66,
-65,
-66,
-66,
-66,
-66,
-66,
-67,
-66,
-67,
-66,
-66,
-67,
-67,
-67,
-67,
-67,
-67,
-67,
-67,
-68,
-68,
-68,
-68,
-68,
-68,
-68,
-68,
-68,
-68,
-68,
-68,
-68,
-68,
-68,
-68,
-69,
-68,
-68,
-68,
-69,
-69,
-68,
-69,
-69,
-69,
-69,
-69,
-68,
-69,
-69,
-69,
-69,
-69,
-69,
-70,
-69,
-70,
-69,
-70,
-69,
-70,
-69,
-69,
-69,
-70,
-69,
-69,
-70,
-69,
-70,
-70,
-70,
-70,
-69,
-70,
-70,
-70,
-70,
-70,
-71,
-70,
-70,
-70,
-70,
-70,
-70,
-70,
-70,
-70,
-71,
-70,
-71,
-71,
-71,
-71,
-71,
-70,
-70,
-70,
-70,
-71,
-71,
-71,
-70,
-71,
-71,
-70,
-71,
-72,
-71,
-71,
-71,
-70,
-71,
-72,
-71,
-71,
-71,
-71,
-71,
-71,
-71,
-71,
-71,
-71,
-71,
-71,
-71,
-71,
-71,
-72,
-71,
-71,
-71,
-71,
-71,
-71,
-71,
-72,
-71,
-72,
-72,
-71,
-71,
-71,
-72,
-71,
-71,
-71,
-72,
-72,
-72,
-71,
-72,
-71,
-71,
-71,
-71,
-71,
-72,
-71,
-71,
-72,
-71,
-72,
-71,
-71,
-72,
-72,
-71,
-71,
-71,
-71,
-71,
-72,
-72,
-71,
-71,
-71,
-72,
-72,
-72,
-72,
-72,
-72,
-72,
-72,
-72,
-72,
-72,
-71,
-72,
-72,
-72,
-72,
-72,
-71,
-72,
-72,
-71,
-72,
-72,
-72,
-71,
-72,
-72,
-72,
-72,
-72,
-72,
-72,
-72,
-71,
-72,
-72,
-72,
-72,
-72,
-72,
-72,
-72,
-71,
-72,
-72,
-72,
-72,
-72,
-71,
-72,
-71,
-71,
-72,
-72,
-72,
-71,
-72,
-72,
-72,
-72,
-72,
-72,
-72,
-72,
-72,
-72,
-72,
-72,
-72,
-72,
-72,
-72,
-72,
-72,
-72,
-71,
-72,
-72,
-71,
-72,
-72,
-72,
-71,
-71,
-72,
-72,
-72,
-72,
-72,
-72,
-72,
-71,
-72,
-72,
-71,
-72,
-72,
-72,
-72,
-72,
-72,
-72,
-71,
-72,
-72,
-72,
-72,
-72,
-72,
-72,
-72,
-72,
-72,
-72,
-72,
-72,
-72,
-72,
-72,
-72,
-71,
-73,
-72,
-72,
-72,
-72,
-72,
-72,
-72,
-72,
-72,
-72,
-72,
-72,
-72,
-72,
-72,
-71,
-72,
-72,
-72,
-72,
-72,
-72,
-72,
-72,
-72,
-72,
-72,
-72,
-72,
-72,
-72,
-72,
-72,
-72,
-72,
-72,
-72,
-72,
-72,
-72,
-72,
-72,
-72,
-72,
-72,
-72,
-72,
-72,
-72,
-72,
-72,
-72,
-72,
-72,
-72,
-72,
-72,
-72,
-72,
-72,
-72,
-72,
-72,
-72,
-72,
-71,
-72,
-72,
-72,
-72,
-72,
-72,
-72,
-71,
-72,
-72,
-72,
-72,
-72,
-71,
-72,
-72,
-72,
-72,
-72,
-71,
-72,
-72,
-72,
-72,
-72,
-72,
-72,
-72,
-72,
-71,
-72,
-72,
-71,
-72,
-72,
-72,
-72,
-72,
-72,
-72,
-72,
-72,
-72,
-71,
-72,
-72,
-72,
-72,
-72,
-72,
-72,
-72,
-72,
-72,
-72,
-73,
-72,
-72,
-72,
-72,
-72,
-72,
-72,
-72,
-72,
-72,
-72,
-72,
-72,
-72,
-72,
-72,
-72,
-72,
-72,
-72,
-72,
-71,
-72,
-72,
-72,
-72,
-72,
-72,
-72,
-72,
-72,
-72,
-72,
-72,
-72,
-72,
-72,
-72,
-72,
-72,
-72,
-72,
-72,
-72,
-72,
-72,
-72,
-72,
-72,
-72,
-72,
-72,
-72,
-72,
-72,
-73,
-71,
-72,
-72,
-72,
-72,
-72,
-73,
-72,
-72,
-72,
-72,
-72,
-72,
-72,
-72,
-72,
-71,
-72,
-72,
-72,
-72,
-72,
-72,
-72,
-72,
-72,
-72,
-72,
-71,
-72,
-72,
-72,
-72,
-71,
-72,
-72,
-72,
-72,
-72,
-72,
-72,
-72,
-72,
-72,
-72,
-72,
-71,
-72,
-72,
-72,
-72,
-72,
-72,
-72,
-72,
-72,
-72,
-72,
-72,
-72,
-72,
-72,
-72,
-72,
-72,
-72,
-72,
-72,
-72,
-71,
-72,
-72,
-71,
-71,
-72,
-72,
-72,
-72,
-72,
-71,
-72,
-72,
-72,
-72,
-72,
-71,
-72,
-72,
-71,
-72,
-72,
-72,
-71,
-72,
-72,
-72,
-72,
-72,
-72,
-72,
-72,
-72,
-72,
-72,
-72,
-72,
-72,
-72,
-72,
-72,
-72,
-72,
-72,
-72,
-72,
-72,
-72,
-72,
-72,
-71,
-72,
-72,
-72,
-72,
-72,
-72,
-72,
-72,
-72,
-72,
-72,
-72,
-71,
-72,
-72,
-72,
-72,
-72,
-72,
-72,
-72,
-72,
-72,
-72,
-72,
-72,
-72,
-72,
-71,
-71,
-72,
-72,
-72,
-72,
-72,
-72,
-72,
-72,
-72,
-72,
-71,
-71,
-72,
-72,
-72,
-72,
-72,
-72,
-72,
-72,
-72,
-72,
-71,
-72,
-72,
-72,
-72,
-72,
-72,
-71,
-72,
-72,
-72,
-72,
-72,
-72,
-72,
-72,
-72,
-71,
-72,
-72,
-72,
-72,
-72,
-72,
-72,
-72,
-72,
-72,
-72,
-72,
-72,
-72,
-72,
-72,
-72,
-72,
-72,
-72,
-72,
-72,
-72,
-72,
-72,
-72,
-72,
-72,
-72,
-72,
-72,
-72,
-72,
-72,
-72,
-72,
-72,
-72,
-72,
-71,
-72,
-72,
-72,
-72,
-72,
-71,
-72,
-72,
-72,
-72,
-72,
-72,
-72,
-72,
-72,
-72,
-72,
-72,
-72,
-71,
-72,
-72,
-72,
-72,
-72,
-72,
-72,
-72,
-72,
-72,
-71,
-71,
-72,
-72,
-72,
-72,
-72,
-72,
-72,
-72,
-72,
-72,
-72,
-72,
-72,
-72,
-72,
-72,
-72,
-72,
-72,
-72,
-71,
-72,
-72,
-72,
-72,
-72,
-72,
-72,
-72,
-72,
-72,
-71,
-70,
-70,
-68,
-66,
-65,
-64,
-61,
-60,
-59,
-57,
-56,
-54,
-53,
-51,
-50,
-48,
-47,
-45,
-44,
-44,
-42,
-41,
-39,
-38,
-37,
-36,
-34,
-33,
-32,
-31,
-30,
-28,
-28,
-27,
-25,
-25,
-24,
-22,
-22,
-20,
-20,
-20,
-17,
-16,
-16,
-15,
-14,
-13,
-12,
-12,
-10,
-10,
-9,
-9,
-8,
-7,
-6,
-5,
-5,
-4,
-4,
-2,
-2,
-1,
0,
1,
1,
2,
3,
3,
4,
4,
4,
5,
6,
7,
7,
8,
8,
9,
9,
10,
10,
11,
11,
12,
12,
12,
13,
14,
14,
15,
15,
16,
16,
16,
17,
18,
18,
18,
19,
20,
19,
20,
20,
20,
21,
21,
22,
22,
23,
23,
23,
23,
24,
24,
24,
24,
25,
26,
26,
26,
26,
27,
27,
27,
27,
28,
28,
28,
28,
29,
29,
30,
30,
30,
30,
31,
31,
30,
31,
31,
32,
32,
32,
32,
32,
32,
33,
33,
34,
32,
34,
34,
34,
34,
34,
35,
35,
35,
35,
35,
35,
35,
36,
35,
36,
36,
36,
36,
37,
37,
36,
36,
37,
37,
37,
38,
37,
38,
37,
38,
38,
38,
38,
39,
39,
39,
39,
39,
39,
39,
39,
40,
39,
39,
39,
40,
40,
40,
40,
40,
40,
40,
40,
40,
40,
40,
40,
41,
41,
40,
42,
42,
42,
42,
42,
41,
42,
41,
41,
42,
42,
42,
42,
42,
42,
43,
43,
43,
43,
43,
42,
43,
43,
43,
43,
43,
43,
43,
43,
43,
43,
43,
43,
43,
43,
44,
44,
43,
43,
43,
44,
44,
43,
44,
44,
43,
44,
44,
44,
44,
44,
44,
44,
44,
44,
44,
44,
44,
44,
44,
44,
44,
44,
44,
44,
44,
44,
44,
45,
44,
44,
45,
44,
45,
44,
44,
45,
44,
45,
44,
44,
45,
44,
44,
45,
46,
45,
46,
46,
46,
45,
45,
44,
46,
46,
46,
45,
44,
45,
46,
46,
45,
46,
45,
44,
45,
46,
46,
45,
46,
46,
45,
45,
46,
46,
46,
46,
46,
45,
46,
46,
46,
46,
46,
46,
46,
46,
46,
46,
46,
46,
46,
46,
46,
45,
46,
46,
46,
46,
46,
46,
46,
46,
47,
47,
46,
47,
46,
47,
47,
46,
47,
46,
46,
47,
47,
46,
47,
46,
47,
46,
47,
46,
47,
47,
47,
46,
46,
46,
47,
46,
47,
47,
46,
47,
47,
47,
46,
47,
47,
46,
47,
47,
47,
46,
47,
47,
46,
46,
46,
46,
46,
46,
47,
46,
47,
46,
46,
47,
47,
47,
47,
46,
47,
47,
47,
47,
47,
46,
46,
46,
45,
47,
46,
47,
47,
46,
46,
46,
47,
47,
46,
47,
47,
47,
47,
47,
47,
46,
47,
47,
47,
46,
46,
47,
46,
47,
47,
47,
47,
47,
47,
47,
47,
46,
46,
46,
46,
46,
47,
47,
47,
46,
46,
47,
46,
47,
47,
46,
47,
47,
47,
46,
47,
47,
47,
47,
47,
46,
46,
47,
46,
47,
47,
47,
47,
47,
47,
47,
46,
47,
47,
47,
47,
47,
47,
47,
47,
47,
46,
47,
47,
47,
46,
47,
47,
47,
46,
46,
47,
46,
47,
47,
47,
47,
47,
47,
47,
47,
47,
47,
47,
47,
47,
47,
47,
47,
47,
47,
47,
47,
47,
47,
46,
46,
47,
47,
47,
46,
47,
47,
47,
46,
47,
46,
47,
47,
47,
47,
47,
46,
46,
47,
47,
47,
47,
47,
47,
47,
47,
47,
47,
47,
47,
47,
46,
47,
47,
47,
47,
47,
47,
47,
47,
46,
47,
47,
47,
47,
46,
46,
47,
47,
46,
47,
47,
47,
46,
46,
47,
47,
47,
47,
46,
47,
47,
46,
47,
47,
47,
47,
47,
47,
47,
46,
47,
47,
47,
47,
47,
46,
46,
47,
47,
46,
47,
46,
47,
47,
47,
46,
47,
47,
47,
47,
47,
47,
47,
46,
47,
47,
47,
47,
47,
46,
47,
47,
47,
47,
47,
47,
46,
47,
47,
46,
47,
47,
47,
47,
46,
47,
47,
47,
47,
46,
47,
47,
47,
46,
47,
46,
47,
46,
47,
47,
47,
47,
47,
46,
47,
46,
47,
47,
47,
47,
47,
46,
47,
47,
46,
46,
47,
46,
47,
46,
47,
46,
47,
46,
47,
46,
47,
47,
46,
47,
47,
47,
46,
47,
47,
46,
47,
46,
46,
47,
47,
46,
47,
47,
46,
47,
46,
46,
46,
47,
46,
47,
46,
47,
47,
47,
46,
46,
46,
46,
47,
47,
47,
47,
47,
47,
46,
46,
47,
47,
47,
47,
46,
47,
47,
47,
47,
47,
46,
47,
47,
47,
47,
47,
46,
46,
47,
47,
46,
47,
47,
47,
47,
46,
46,
47,
46,
47,
47,
46,
47,
47,
47,
47,
47,
46,
46,
46,
47,
47,
46,
47,
47,
47,
46,
47,
47,
47,
46,
47,
47,
47,
46,
47,
46,
46,
47,
47,
47,
47,
47,
47,
47,
47,
47,
47,
47,
46,
46,
46,
47,
46,
47,
47,
47,
47,
47,
47,
46,
47,
46,
47,
46,
47,
47,
46,
46,
47,
46,
47,
47,
46,
47,
47,
47,
46,
47,
47,
47,
47,
47,
47,
47,
46,
47,
47,
46,
47,
47,
47,
47,
46,
47,
46,
47,
47,
46,
47,
47,
47,
46,
47,
47,
47,
46,
46,
47,
47,
46,
47,
46,
47,
47,
47,
47,
46,
47,
47,
47,
47,
47,
47,
47,
46,
47,
47,
47,
47,
47,
47,
47,
47,
47,
47,
46,
47,
47,
47,
47,
46,
47,
47,
47,
47,
47,
47,
47,
47,
47,
47,
47,
47,
46,
46,
47,
47,
47,
47,
47,
46,
46,
47,
47,
47,
47,
47,
46,
47,
47,
47,
47,
46,
46,
44,
43,
41,
40,
38,
36,
35,
34,
32,
31,
28,
27,
26,
24,
23,
22,
20,
19,
18,
16,
15,
14,
12,
11,
11,
9,
8,
7,
6,
4,
3,
3,
1,
0,
-1,
-1,
-3,
-4,
-5,
-6,
-6,
-8,
-8,
-9,
-10,
-11,
-12,
-12,
-13,
-15,
-15,
-16,
-17,
-18,
-18,
-19,
-20,
-21,
-21,
-22,
-23,
-24,
-24,
-25,
-26,
-26,
-27,
-27,
-28,
-28,
-30,
-30,
-31,
-31,
-32,
-32,
-33,
-34,
-34,
-35,
-36,
-36,
-36,
-37,
-37,
-38,
-38,
-39,
-39,
-40,
-40,
-41,
-41,
-42,
-42,
-42,
-43,
-43,
-43,
-44,
-44,
-44,
-45,
-45,
-46,
-45,
-46,
-47,
-47,
-47,
-48,
-48,
-49,
-49,
-49,
-50,
-49,
-50,
-50,
-52,
-52,
-52,
-52,
-52,
-52,
-53,
-53,
-53,
-54,
-53,
-54,
-54,
-54,
-56,
-55,
-55,
-55,
-56,
-56,
-56,
-56,
-57,
-57,
-57,
-57,
-57,
-57,
-58,
-58,
-58,
-58,
-59,
-59,
-59,
-59,
-59,
-60,
-60,
-60,
-60,
-60,
-60,
-61,
-61,
-60,
-61,
-61,
-61,
-61,
-61,
-62,
-61,
-62,
-62,
-62,
-63,
-62,
-62,
-62,
-63,
-62,
-64,
-64,
-64,
-64,
-64,
-64,
-63,
-64,
-64,
-64,
-64,
-64,
-64,
-65,
-65,
-65,
-65,
-65,
-65,
-65,
-65,
-66,
-65,
-66,
-66,
-66,
-66,
-66,
-66,
-66,
-66,
-67,
-66,
-66,
-66,
-66,
-67,
-67,
-67,
-67,
-68,
-67,
-68,
-67,
-67,
-68,
-67,
-68,
-67,
-68,
-68,
-68,
-68,
-68,
-68,
-68,
-68,
-69,
-69,
-69,
-68,
-68,
-68,
-68,
-69,
-68,
-68,
-69,
-68,
-69,
-69,
-69,
-68,
-69,
-69,
-69,
-69,
-69,
-69,
-69,
-69,
-69,
-70,
-69,
-69,
-69,
-69,
-70,
-70,
-70,
-69,
-70,
-69,
-69,
-70,
-69,
-70,
-69,
-70,
-70,
-70,
-70,
-70,
-70,
-70,
-70,
-70,
-70,
-70,
-70,
-70,
-70,
-71,
-71,
-71,
-70,
-70,
-71,
-71,
-70,
-70,
-70,
-70,
-71,
-71,
-70,
-71,
-70,
-70,
-71,
-71,
-71,
-71,
-71,
-70,
-71,
-71,
-70,
-71,
-70,
-70,
-70,
-71,
-71,
-71,
-71,
-71,
-71,
-71,
-71,
-71,
-71,
-71,
-71,
-71,
-71,
-71,
-71,
-72,
-72,
-72,
-71,
-72,
-72,
-72,
-71,
-71,
-72,
-71,
-71,
-72,
-71,
-71,
-71,
-71,
-71,
-71,
-71,
-72,
-71,
-71,
-72,
-71,
-72,
-71,
-72,
-72,
-71,
-72,
-72,
-72,
-71,
-71,
-72,
-72,
-71,
-72,
-72,
-72,
-72,
-71,
-71,
-72,
-71,
-71,
-72,
-72,
-71,
-72,
-72,
-72,
-71,
-72,
-72,
-71,
-71,
-72,
-71,
-72,
-72,
-72,
-71,
-72,
-72,
-72,
-72,
-72,
-71,
-72,
-72,
-72,
-72,
-72,
-72,
-72,
-71,
-72,
-71,
-72,
-72,
-72,
-72,
-72,
-72,
-72,
-72,
-72,
-71,
-72,
-71,
-71,
-72,
-72,
-72,
-72,
-72,
-72,
-72,
-72,
-71,
-72,
-72,
-72,
-72,
-72,
-71,
-71,
-72,
-72,
-72,
-72,
-72,
-72,
-72,
-72,
-72,
-72,
-72,
-71,
-72,
-72,
-72,
-72,
-72,
-72,
-71,
-72,
-72,
-72,
-72,
-72,
-72,
-72,
-72,
-71,
-72,
-72,
-72,
-72,
-71,
-72,
-72,
-71,
-72,
-72,
-72,
-72,
-72,
-72,
-72,
-72,
-72,
-72,
-72,
-72,
-72,
-72,
-72,
-72,
-72,
-72,
-72,
-72,
-72,
-72,
-72,
-72,
-72,
-72,
-72,
-72,
-72,
-72,
-72,
-72,
-72,
-72,
-72,
-72,
-72,
-72,
-72,
-72,
-72,
-72,
-72,
-72,
-72,
-72,
-72,
-72,
-72,
-72,
-72,
-72,
-72,
-71,
-72,
-72,
-72,
-72,
-72,
-72,
-72,
-72,
-72,
-72,
-72,
-72,
-72,
-72,
-72,
-72,
-72,
-72,
-72,
-72,
-73,
-72,
-72,
-72,
-72,
-71,
-72,
-72,
-72,
-72,
-71,
-72,
-72,
-72,
-72,
-72,
-72,
-72,
-72,
-72,
-72,
-72,
-72,
-72,
-72,
-72,
-72,
-72,
-72,
-72,
-72,
-72,
-72,
-72,
-72,
-72,
-72,
-72,
-72,
-72,
-72,
-72,
-72,
-72,
-72,
-72,
-72,
-72,
-72,
-72,
-72,
-71,
-72,
-72,
-72,
-72,
-72,
-72,
-71,
-72,
-72,
-72,
-72,
-72,
-72,
-72,
-72,
-72,
-72,
-72,
-72,
-72,
-72,
-72,
-72,
-72,
-72,
-72,
-72,
-72,
-72,
-72,
-72,
-72,
-72,
-72,
-72,
-72,
-72,
-71,
-72,
-71,
-72,
-72,
-71,
-72,
-72,
-72,
-71,
-72,
-72,
-72,
-72,
-72,
-72,
-71,
-72,
-72,
-72,
-71,
-72,
-72,
-72,
-72,
-72,
-72,
-72,
-72,
-72,
-71,
-72,
-72,
-72,
-72,
-72,
-72,
-72,
-72,
-72,
-72,
-71,
-72,
-72,
-72,
-72,
-72,
-71,
-72,
-72,
-72,
-72,
-72,
-72,
-72,
-72,
-72,
-72,
-72,
-72,
-72,
-72,
-72,
-72,
-72,
-72,
-72,
-72,
-72,
-72,
-72,
-71,
-72,
-72,
-72,
-72,
-72,
-72,
-72,
-72,
-72,
-72,
-72,
-72,
-72,
-72,
-72,
-73,
-72,
-72,
-72,
-71,
-72,
-72,
-72,
-72,
-72,
-72,
-72,
-72,
-71,
-72,
-72,
-72,
-72,
-72,
-72,
-72,
-72,
-72,
-72,
-72,
-72,
-72,
-72,
-72,
-72,
-72,
-72,
-72,
-72,
-72,
-72,
-72,
-72,
-72,
-72,
-72,
-72,
-72,
-72,
-72,
-72,
-72,
-72,
-72,
-72,
-72,
-71,
-72,
-72,
-72,
-72,
-72,
-71,
-72,
-72,
-72,
-72,
-72,
-72,
-72,
-72,
-72,
-72,
-72,
-72,
-72,
-72,
-72,
-72,
-72,
-72,
-72,
-72,
-72,
-72,
-72,
-72,
-72,
-72,
-72,
-71,
-71,
-72,
-72,
-72,
-72,
-72,
-72,
-72,
-72,
-72,
-72,
-72,
-72,
-72,
-72,
-72,
-72,
-72,
-72,
-71,
-72,
-72,
-72,
-72,
-72,
-72,
-72,
-72,
-72,
-72,
-72,
-72,
-72,
-71,
-72,
-72,
-72,
-72,
-72,
-72,
-72,
-72,
-72,
-72,
-72,
-72,
-72,
-72,
-71,
-71,
-71,
-72,
-72,
-72,
-72,
-72,
-72,
-72,
-71,
-72,
-72,
-71,
-72,
-72,
-72,
-72,
-72,
-72,
-72,
-71,
-72,
-72,
-72,
-72,
-72,
-72,
-72,
-72,
-72,
-72,
-72,
-72,
-72,
-72,
-72,
-72,
-72,
-72,
-72,
-72,
-72,
-72,
-72,
-71,
-72,
-72,
-72,
-72,
-72,
-72,
-72,
-72,
-72,
-72,
-72,
-72,
-72,
-71,
-72,
-72,
-72,
-72,
-72,
-72,
-72,
-72,
-71,
-71,
-72,
-72,
-72,
-72,
-72,
-72,
-72,
-71,
-72,
-72,
-72,
-72,
-72,
-72,
-72,
-72,
-72,
-71,
-72,
-72,
-72,
-72,
-72,
-72,
-72,
-72,
-72,
-72,
-71,
-72,
-72,
-72,
-72,
-72,
-72,
-72,
-72,
-72,
-72,
-72,
-71,
-71,
-72,
-72,
-72,
-70,
-68,
-66,
-65,
-62,
-61,
-60,
-58,
-57,
-55,
-54,
-53,
-51,
-49,
-48,
-47,
-45,
-44,
-43,
-41,
-41,
-40,
-38,
-37,
-36,
-34,
-33,
-32,
-31,
-30,
-28,
-28,
-27,
-25,
-24,
-24,
-22,
-22,
-20,
-20,
-19,
-17,
-16,
-16,
-15,
-15,
-13,
-12,
-12,
-10,
-10,
-9,
-8,
-7,
-7,
-5,
-5,
-5,
-4,
-3,
-2,
-2,
-1,
0,
0,
2,
2,
3,
3,
4,
4,
5,
5,
6,
7,
7,
7,
9,
9,
9,
10,
10,
11,
11,
12,
12,
12,
13,
14,
15,
15,
15,
16,
16,
17,
17,
18,
18,
18,
19,
19,
19,
20,
20,
21,
21,
21,
21,
23,
22,
23,
22,
23,
24,
24,
24,
24,
25,
26,
26,
26,
27,
27,
27,
27,
27,
28,
28,
28,
28,
29,
29,
29,
30,
30,
29,
31,
31,
31,
31,
31,
31,
32,
32,
33,
32,
32,
33,
33,
32,
33,
34,
34,
34,
34,
34,
34,
35,
35,
35,
35,
35,
35,
36,
36,
36,
36,
36,
36,
37,
37,
36,
37,
38,
37,
37,
37,
37,
38,
38,
38,
38,
38,
39,
39,
38,
39,
38,
39,
39,
39,
40,
39,
39,
40,
40,
40,
40,
40,
40,
40,
40,
40,
40,
40,
41,
40,
40,
41,
41,
41,
41,
41,
42,
41,
41,
42,
42,
42,
41,
42,
42,
42,
42,
42,
42,
42,
42,
43,
43,
43,
43,
42,
43,
43,
43,
42,
43,
43,
43,
43,
43,
43,
44,
44,
43,
43,
43,
43,
43,
43,
43,
43,
44,
44,
43,
44,
44,
44,
44,
44,
44,
44,
44,
44,
44,
44,
44,
44,
44,
44,
44,
44,
44,
44,
44,
44,
44,
44,
44,
44,
45,
45,
44,
45,
44,
45,
44,
45,
45,
44,
45,
45,
44,
45,
45,
46,
46,
46,
45,
45,
45,
44,
45,
45,
46,
45,
45,
45,
45,
44,
46,
46,
46,
45,
46,
46,
46,
46,
45,
46,
46,
46,
46,
45,
46,
46,
46,
45,
46,
46,
46,
46,
46,
46,
46,
46,
46,
46,
46,
46,
46,
46,
46,
46,
46,
46,
46,
46,
46,
46,
46,
46,
46,
47,
46,
47,
46,
46,
46,
46,
47,
46,
46,
47,
46,
46,
46,
46,
46,
46,
46,
46,
47,
47,
46,
46,
46,
47,
46,
47,
46,
46,
46,
46,
47,
47,
47,
47,
47,
46,
47,
46,
47,
46,
47,
46,
47,
47,
47,
47,
46,
46,
46,
47,
47,
47,
46,
46,
46,
47,
46,
46,
47,
47,
47,
47,
46,
46,
47,
46,
47,
47,
47,
46,
47,
46,
47,
47,
47,
47,
47,
46,
47,
46,
47,
46,
46,
47,
47,
46,
47,
47,
47,
47,
47,
47,
46,
47,
46,
47,
47,
47,
47,
46,
46,
47,
47,
47,
47,
46,
47,
47,
47,
47,
47,
46,
47,
47,
47,
47,
47,
47,
47,
47,
47,
47,
47,
47,
46,
47,
47,
47,
46,
47,
47,
46,
48,
46,
47,
47,
47,
46,
46,
47,
46,
47,
46,
46,
47,
47,
46,
47,
47,
47,
47,
47,
47,
47,
46,
47,
47,
47,
46,
47,
46,
47,
47,
47,
47,
46,
47,
46,
47,
46,
46,
47,
47,
47,
47,
47,
47,
46,
47,
46,
46,
47,
46,
46,
47,
47,
47,
47,
47,
46,
47,
47,
46,
46,
46,
46,
46,
47,
47,
47,
47,
46,
47,
47,
47,
47,
47,
47,
47,
46,
47,
47,
46,
47,
47,
47,
47,
47,
47,
46,
47,
47,
46,
47,
47,
47,
47,
47,
47,
47,
47,
47,
47,
47,
46,
47,
47,
46,
47,
47,
47,
47,
47,
47,
47,
47,
47,
47,
46,
47,
46,
46,
47,
47,
47,
46,
47,
47,
47,
46,
47,
48,
47,
47,
47,
47,
47,
47,
47,
47,
47,
47,
47,
47,
47,
46,
46,
46,
47,
46,
46,
46,
46,
47,
47,
47,
46,
47,
46,
47,
47,
47,
47,
47,
47,
46,
47,
47,
47,
47,
46,
47,
47,
47,
47,
47,
47,
46,
47,
46,
47,
47,
47,
47,
47,
47,
47,
46,
47,
46,
47,
47,
47,
47,
47,
47,
46,
47,
46,
47,
47,
47,
